{
  "data": {
    "list": [
      {
        "orderNo": "TestWD202605081824049120010031",
        "userId": 404047,
        "userType": 1,
        "totalWithdrawCount": 0,
        "withdrawCategoryId": 100000,
        "withdrawChannelId": 10386,
        "thirdPayMerchantId": 340009,
        "tenantChannelId": 480028,
        "withdrawInfo": "{\"BankName\":\"INR Test Bank A\",\"BeneficiaryName\":\"INR Test User A\",\"AccountNo\":\"5123450000000008\",\"IFSCCode\":\"SBIN0006418\",\"Email\":\"\",\"MobileNO\":\"918800000001\",\"BankCityCode\":\"\",\"BankProvinceCode\":\"\",\"BankBranchAddress\":\"\"}",
        "thirdOrderNo": "",
        "thirdState": 3,
        "thirdMessage": "收到回调,Success",
        "amount": 1000,
        "actualAmount": 1000,
        "uGold": 0,
        "uRate": 0,
        "fee": 0,
        "withdrawState": 1,
        "auditState": 0,
        "manualRemark": "测试代付拉单",
        "orderRemark": "测试代付拉单",
        "lockOperatorId": 404047,
        "lockOperator": "ben_jmeter_002",
        "tenantId": 2001,
        "sysCurrency": "INR",
        "creator": "ben_jmeter_002",
        "createTime": 1778244844910,
        "lastUpdateMan": "system",
        "lastUpdateTime": 1778244845001,
        "parentId": 0,
        "generalAgentId": 0,
        "submittedTime": 1778244845001,
        "paidOutCount": 0,
        "thisCodingAmount": 0,
        "auditStartTime": 0,
        "auditEndTime": 0,
        "auditDuration": 0,
        "assignerSysUserId": -1,
        "assignRemark": "",
        "assignTime": 0
      },
      {
        "orderNo": "WD20260508181834182001092a",
        "userId": 2247491,
        "userType": 0,
        "totalWithdrawCount": 0,
        "withdrawCategoryId": 100000,
        "withdrawChannelId": 0,
        "thirdPayMerchantId": 0,
        "tenantChannelId": 0,
        "withdrawInfo": "{\"BankName\":\"CITI\",\"BeneficiaryName\":\"EWER\",\"AccountNo\":\"12457412287\",\"IFSCCode\":\"AAAA0BBBBBB\",\"Email\":\"\",\"MobileNo\":\"668888888888\",\"BankCityCode\":\"\",\"BankProvinceCode\":\"\",\"BankBranchAddress\":\"\"}",
        "thirdOrderNo": "",
        "thirdState": 2,
        "thirdMessage": "",
        "amount": 100,
        "actualAmount": 100,
        "uGold": 0,
        "uRate": 0,
        "fee": 0,
        "withdrawState": 2,
        "auditState": 1,
        "manualRemark": "1212",
        "orderRemark": "",
        "lockOperatorId": 404042,
        "lockOperator": "milozy01",
        "tenantId": 2001,
        "sysCurrency": "INR",
        "creator": "system",
        "createTime": 1778244514180,
        "lastUpdateMan": "milozy01",
        "lastUpdateTime": 1778244557017,
        "parentId": 0,
        "generalAgentId": 1681394,
        "submittedTime": 0,
        "paidOutCount": 0,
        "thisCodingAmount": 0,
        "auditStartTime": 1778244546644,
        "auditEndTime": 1778244556978,
        "auditDuration": 10334,
        "assignerSysUserId": 404039,
        "assignRemark": "1212",
        "assignTime": 1778244530066
      },
      {
        "orderNo": "WD20260508174010522001091a",
        "userId": 2247491,
        "userType": 0,
        "totalWithdrawCount": 0,
        "withdrawCategoryId": 100000,
        "withdrawChannelId": 8,
        "thirdPayMerchantId": 0,
        "tenantChannelId": 0,
        "withdrawInfo": "{\"BankName\":\"CITI\",\"BeneficiaryName\":\"EWER\",\"AccountNo\":\"12457412287\",\"IFSCCode\":\"AAAA0BBBBBB\",\"Email\":\"\",\"MobileNo\":\"668888888888\",\"BankCityCode\":\"\",\"BankProvinceCode\":\"\",\"BankBranchAddress\":\"\"}",
        "thirdOrderNo": "",
        "thirdState": 3,
        "thirdMessage": "",
        "amount": 100,
        "actualAmount": 100,
        "uGold": 0,
        "uRate": 0,
        "fee": 0,
        "withdrawState": 1,
        "auditState": 1,
        "manualRemark": "12",
        "orderRemark": "",
        "lockOperatorId": 404042,
        "lockOperator": "milozy01",
        "tenantId": 2001,
        "sysCurrency": "INR",
        "creator": "system",
        "createTime": 1778242210520,
        "lastUpdateMan": "milozy01",
        "lastUpdateTime": 1778242285642,
        "parentId": 0,
        "generalAgentId": 1681394,
        "submittedTime": 0,
        "paidOutCount": 0,
        "thisCodingAmount": 0,
        "auditStartTime": 1778242272062,
        "auditEndTime": 1778242285610,
        "auditDuration": 13548,
        "assignerSysUserId": 404039,
        "assignRemark": "12",
        "assignTime": 1778242253465
      },
      {
        "orderNo": "TestWD202605081640060220010088",
        "userId": 404047,
        "userType": 1,
        "totalWithdrawCount": 0,
        "withdrawCategoryId": 100000,
        "withdrawChannelId": 10386,
        "thirdPayMerchantId": 340009,
        "tenantChannelId": 480028,
        "withdrawInfo": "{\"BankName\":\"INR Test Bank A\",\"BeneficiaryName\":\"INR Test User A\",\"AccountNo\":\"5123450000000008\",\"IFSCCode\":\"SBIN0006418\",\"Email\":\"\",\"MobileNO\":\"918800000001\",\"BankCityCode\":\"\",\"BankProvinceCode\":\"\",\"BankBranchAddress\":\"\"}",
        "thirdOrderNo": "",
        "thirdState": 3,
        "thirdMessage": "收到回调,Success",
        "amount": 1000,
        "actualAmount": 1000,
        "uGold": 0,
        "uRate": 0,
        "fee": 0,
        "withdrawState": 1,
        "auditState": 0,
        "manualRemark": "测试代付拉单",
        "orderRemark": "测试代付拉单",
        "lockOperatorId": 404047,
        "lockOperator": "ben_jmeter_002",
        "tenantId": 2001,
        "sysCurrency": "INR",
        "creator": "ben_jmeter_002",
        "createTime": 1778238606020,
        "lastUpdateMan": "system",
        "lastUpdateTime": 1778238606248,
        "parentId": 0,
        "generalAgentId": 0,
        "submittedTime": 1778238606247,
        "paidOutCount": 0,
        "thisCodingAmount": 0,
        "auditStartTime": 0,
        "auditEndTime": 0,
        "auditDuration": 0,
        "assignerSysUserId": -1,
        "assignRemark": "",
        "assignTime": 0
      },
      {
        "orderNo": "TestWD202605081636102420010078",
        "userId": 404047,
        "userType": 1,
        "totalWithdrawCount": 0,
        "withdrawCategoryId": 100000,
        "withdrawChannelId": 10386,
        "thirdPayMerchantId": 340009,
        "tenantChannelId": 480028,
        "withdrawInfo": "{\"BankName\":\"INR Test Bank A\",\"BeneficiaryName\":\"INR Test User A\",\"AccountNo\":\"5123450000000008\",\"IFSCCode\":\"SBIN0006418\",\"Email\":\"\",\"MobileNO\":\"918800000001\",\"BankCityCode\":\"\",\"BankProvinceCode\":\"\",\"BankBranchAddress\":\"\"}",
        "thirdOrderNo": "",
        "thirdState": 3,
        "thirdMessage": "收到回调,Success",
        "amount": 1000,
        "actualAmount": 1000,
        "uGold": 0,
        "uRate": 0,
        "fee": 0,
        "withdrawState": 1,
        "auditState": 0,
        "manualRemark": "测试代付拉单",
        "orderRemark": "测试代付拉单",
        "lockOperatorId": 404047,
        "lockOperator": "ben_jmeter_002",
        "tenantId": 2001,
        "sysCurrency": "INR",
        "creator": "ben_jmeter_002",
        "createTime": 1778238370240,
        "lastUpdateMan": "system",
        "lastUpdateTime": 1778238370471,
        "parentId": 0,
        "generalAgentId": 0,
        "submittedTime": 1778238370470,
        "paidOutCount": 0,
        "thisCodingAmount": 0,
        "auditStartTime": 0,
        "auditEndTime": 0,
        "auditDuration": 0,
        "assignerSysUserId": -1,
        "assignRemark": "",
        "assignTime": 0
      },
      {
        "orderNo": "TestWD202605081632211620010058",
        "userId": 404047,
        "userType": 1,
        "totalWithdrawCount": 0,
        "withdrawCategoryId": 100000,
        "withdrawChannelId": 10386,
        "thirdPayMerchantId": 340009,
        "tenantChannelId": 480028,
        "withdrawInfo": "{\"BankName\":\"INR Test Bank A\",\"BeneficiaryName\":\"INR Test User A\",\"AccountNo\":\"5123450000000008\",\"IFSCCode\":\"SBIN0006418\",\"Email\":\"\",\"MobileNO\":\"918800000001\",\"BankCityCode\":\"\",\"BankProvinceCode\":\"\",\"BankBranchAddress\":\"\"}",
        "thirdOrderNo": "",
        "thirdState": 3,
        "thirdMessage": "收到回调,Success",
        "amount": 1000,
        "actualAmount": 1000,
        "uGold": 0,
        "uRate": 0,
        "fee": 0,
        "withdrawState": 1,
        "auditState": 0,
        "manualRemark": "测试代付拉单",
        "orderRemark": "测试代付拉单",
        "lockOperatorId": 404047,
        "lockOperator": "ben_jmeter_002",
        "tenantId": 2001,
        "sysCurrency": "INR",
        "creator": "ben_jmeter_002",
        "createTime": 1778238141160,
        "lastUpdateMan": "system",
        "lastUpdateTime": 1778238141248,
        "parentId": 0,
        "generalAgentId": 0,
        "submittedTime": 1778238141247,
        "paidOutCount": 0,
        "thisCodingAmount": 0,
        "auditStartTime": 0,
        "auditEndTime": 0,
        "auditDuration": 0,
        "assignerSysUserId": -1,
        "assignRemark": "",
        "assignTime": 0
      },
      {
        "orderNo": "WD20260508154322822001082a",
        "userId": 2247519,
        "userType": 0,
        "totalWithdrawCount": 1,
        "withdrawCategoryId": 100000,
        "withdrawChannelId": 0,
        "thirdPayMerchantId": 0,
        "tenantChannelId": 0,
        "withdrawInfo": "{\"BankName\":\"v1卡\",\"BeneficiaryName\":\"tt\",\"AccountNo\":\"7772362242333\",\"IFSCCode\":\"SBIN0001234\",\"Email\":\"\",\"MobileNo\":\"661255645255\",\"BankCityCode\":\"\",\"BankProvinceCode\":\"\",\"BankBranchAddress\":\"\"}",
        "thirdOrderNo": "",
        "thirdState": 3,
        "thirdMessage": "收到回调,Success",
        "amount": 455,
        "actualAmount": 455,
        "uGold": 0,
        "uRate": 0,
        "fee": 0,
        "withdrawState": 1,
        "auditState": 0,
        "manualRemark": "未开启自动出款配置",
        "orderRemark": "",
        "lockOperatorId": 0,
        "lockOperator": "",
        "tenantId": 2001,
        "sysCurrency": "INR",
        "creator": "system",
        "createTime": 1778235202820,
        "lastUpdateMan": "",
        "lastUpdateTime": 1778235202859,
        "parentId": 0,
        "generalAgentId": 1681394,
        "submittedTime": 0,
        "paidOutCount": 0,
        "thisCodingAmount": 0,
        "auditStartTime": 0,
        "auditEndTime": 0,
        "auditDuration": 0,
        "assignerSysUserId": -1,
        "assignRemark": "",
        "assignTime": 0
      },
      {
        "orderNo": "WD20260508154313522001078a",
        "userId": 2247519,
        "userType": 0,
        "totalWithdrawCount": 1,
        "withdrawCategoryId": 100000,
        "withdrawChannelId": 0,
        "thirdPayMerchantId": 0,
        "tenantChannelId": 0,
        "withdrawInfo": "{\"BankName\":\"v1卡\",\"BeneficiaryName\":\"tt\",\"AccountNo\":\"7772362242333\",\"IFSCCode\":\"SBIN0001234\",\"Email\":\"\",\"MobileNo\":\"661255645255\",\"BankCityCode\":\"\",\"BankProvinceCode\":\"\",\"BankBranchAddress\":\"\"}",
        "thirdOrderNo": "",
        "thirdState": 3,
        "thirdMessage": "收到回调,Success",
        "amount": 497,
        "actualAmount": 497,
        "uGold": 0,
        "uRate": 0,
        "fee": 0,
        "withdrawState": 1,
        "auditState": 0,
        "manualRemark": "未开启自动出款配置",
        "orderRemark": "",
        "lockOperatorId": 0,
        "lockOperator": "",
        "tenantId": 2001,
        "sysCurrency": "INR",
        "creator": "system",
        "createTime": 1778235193520,
        "lastUpdateMan": "",
        "lastUpdateTime": 1778235193560,
        "parentId": 0,
        "generalAgentId": 1681394,
        "submittedTime": 0,
        "paidOutCount": 0,
        "thisCodingAmount": 0,
        "auditStartTime": 0,
        "auditEndTime": 0,
        "auditDuration": 0,
        "assignerSysUserId": -1,
        "assignRemark": "",
        "assignTime": 0
      },
      {
        "orderNo": "WD20260508154311232001077a",
        "userId": 2247519,
        "userType": 0,
        "totalWithdrawCount": 1,
        "withdrawCategoryId": 100000,
        "withdrawChannelId": 0,
        "thirdPayMerchantId": 0,
        "tenantChannelId": 0,
        "withdrawInfo": "{\"BankName\":\"v1卡\",\"BeneficiaryName\":\"tt\",\"AccountNo\":\"7772362242333\",\"IFSCCode\":\"SBIN0001234\",\"Email\":\"\",\"MobileNo\":\"661255645255\",\"BankCityCode\":\"\",\"BankProvinceCode\":\"\",\"BankBranchAddress\":\"\"}",
        "thirdOrderNo": "",
        "thirdState": 3,
        "thirdMessage": "收到回调,Success",
        "amount": 934,
        "actualAmount": 934,
        "uGold": 0,
        "uRate": 0,
        "fee": 0,
        "withdrawState": 1,
        "auditState": 0,
        "manualRemark": "未开启自动出款配置",
        "orderRemark": "",
        "lockOperatorId": 0,
        "lockOperator": "",
        "tenantId": 2001,
        "sysCurrency": "INR",
        "creator": "system",
        "createTime": 1778235191230,
        "lastUpdateMan": "",
        "lastUpdateTime": 1778235191267,
        "parentId": 0,
        "generalAgentId": 1681394,
        "submittedTime": 0,
        "paidOutCount": 0,
        "thisCodingAmount": 0,
        "auditStartTime": 0,
        "auditEndTime": 0,
        "auditDuration": 0,
        "assignerSysUserId": -1,
        "assignRemark": "",
        "assignTime": 0
      },
      {
        "orderNo": "WD20260508154304352001074a",
        "userId": 2247519,
        "userType": 0,
        "totalWithdrawCount": 1,
        "withdrawCategoryId": 100000,
        "withdrawChannelId": 0,
        "thirdPayMerchantId": 0,
        "tenantChannelId": 0,
        "withdrawInfo": "{\"BankName\":\"v1卡\",\"BeneficiaryName\":\"tt\",\"AccountNo\":\"7772362242333\",\"IFSCCode\":\"SBIN0001234\",\"Email\":\"\",\"MobileNo\":\"661255645255\",\"BankCityCode\":\"\",\"BankProvinceCode\":\"\",\"BankBranchAddress\":\"\"}",
        "thirdOrderNo": "",
        "thirdState": 3,
        "thirdMessage": "收到回调,Success",
        "amount": 599,
        "actualAmount": 599,
        "uGold": 0,
        "uRate": 0,
        "fee": 0,
        "withdrawState": 1,
        "auditState": 0,
        "manualRemark": "未开启自动出款配置",
        "orderRemark": "",
        "lockOperatorId": 0,
        "lockOperator": "",
        "tenantId": 2001,
        "sysCurrency": "INR",
        "creator": "system",
        "createTime": 1778235184350,
        "lastUpdateMan": "",
        "lastUpdateTime": 1778235184393,
        "parentId": 0,
        "generalAgentId": 1681394,
        "submittedTime": 0,
        "paidOutCount": 0,
        "thisCodingAmount": 0,
        "auditStartTime": 0,
        "auditEndTime": 0,
        "auditDuration": 0,
        "assignerSysUserId": -1,
        "assignRemark": "",
        "assignTime": 0
      },
      {
        "orderNo": "TestWD202605081316346820010028",
        "userId": 404047,
        "userType": 1,
        "totalWithdrawCount": 0,
        "withdrawCategoryId": 100000,
        "withdrawChannelId": 10300,
        "thirdPayMerchantId": 344006,
        "tenantChannelId": 484031,
        "withdrawInfo": "{\"BankName\":\"INR Test Bank A\",\"BeneficiaryName\":\"INR Test User A\",\"AccountNo\":\"5123450000000008\",\"IFSCCode\":\"SBIN0006418\",\"Email\":\"\",\"MobileNO\":\"918800000001\",\"BankCityCode\":\"\",\"BankProvinceCode\":\"\",\"BankBranchAddress\":\"\"}",
        "thirdOrderNo": "",
        "thirdState": 3,
        "thirdMessage": "Insufficient amount available!",
        "amount": 10000,
        "actualAmount": 10000,
        "uGold": 0,
        "uRate": 0,
        "fee": 0,
        "withdrawState": 1,
        "auditState": 1,
        "manualRemark": "123",
        "orderRemark": "测试代付拉单",
        "lockOperatorId": 404047,
        "lockOperator": "ben_jmeter_002",
        "tenantId": 2001,
        "sysCurrency": "INR",
        "creator": "ben_jmeter_002",
        "createTime": 1778226394680,
        "lastUpdateMan": "ben_jmeter_002",
        "lastUpdateTime": 1778244318744,
        "parentId": 0,
        "generalAgentId": 0,
        "submittedTime": 0,
        "paidOutCount": 0,
        "thisCodingAmount": 0,
        "auditStartTime": 1778244280172,
        "auditEndTime": 1778244318726,
        "auditDuration": 38554,
        "assignerSysUserId": -1,
        "assignRemark": "",
        "assignTime": 0
      },
      {
        "orderNo": "TestWD202605081257596020010019",
        "userId": 404047,
        "userType": 1,
        "totalWithdrawCount": 0,
        "withdrawCategoryId": 100000,
        "withdrawChannelId": 10386,
        "thirdPayMerchantId": 340009,
        "tenantChannelId": 480028,
        "withdrawInfo": "{\"BankName\":\"INR Test Bank A\",\"BeneficiaryName\":\"INR Test User A\",\"AccountNo\":\"5123450000000008\",\"IFSCCode\":\"SBIN0006418\",\"Email\":\"\",\"MobileNO\":\"918800000001\",\"BankCityCode\":\"\",\"BankProvinceCode\":\"\",\"BankBranchAddress\":\"\"}",
        "thirdOrderNo": "",
        "thirdState": 3,
        "thirdMessage": "收到回调,Success",
        "amount": 1000,
        "actualAmount": 1000,
        "uGold": 0,
        "uRate": 0,
        "fee": 0,
        "withdrawState": 1,
        "auditState": 0,
        "manualRemark": "测试代付拉单",
        "orderRemark": "测试代付拉单",
        "lockOperatorId": 404047,
        "lockOperator": "ben_jmeter_002",
        "tenantId": 2001,
        "sysCurrency": "INR",
        "creator": "ben_jmeter_002",
        "createTime": 1778225279600,
        "lastUpdateMan": "system",
        "lastUpdateTime": 1778225279725,
        "parentId": 0,
        "generalAgentId": 0,
        "submittedTime": 1778225279724,
        "paidOutCount": 0,
        "thisCodingAmount": 0,
        "auditStartTime": 0,
        "auditEndTime": 0,
        "auditDuration": 0,
        "assignerSysUserId": -1,
        "assignRemark": "",
        "assignTime": 0
      },
      {
        "orderNo": "WD20260508124406852001062a",
        "userId": 2247519,
        "userType": 0,
        "totalWithdrawCount": 1,
        "withdrawCategoryId": 100000,
        "withdrawChannelId": 10386,
        "thirdPayMerchantId": 340009,
        "tenantChannelId": 480028,
        "withdrawInfo": "{\"BankName\":\"v1卡\",\"BeneficiaryName\":\"tt\",\"AccountNo\":\"7772362242333\",\"IFSCCode\":\"SBIN0001234\",\"Email\":\"\",\"MobileNo\":\"661255645255\",\"BankCityCode\":\"\",\"BankProvinceCode\":\"\",\"BankBranchAddress\":\"\"}",
        "thirdOrderNo": "",
        "thirdState": 3,
        "thirdMessage": "收到回调,Success",
        "amount": 600,
        "actualAmount": 600,
        "uGold": 0,
        "uRate": 0,
        "fee": 0,
        "withdrawState": 1,
        "auditState": 0,
        "manualRemark": "",
        "orderRemark": "",
        "lockOperatorId": -1,
        "lockOperator": "system",
        "tenantId": 2001,
        "sysCurrency": "INR",
        "creator": "system",
        "createTime": 1778224446850,
        "lastUpdateMan": "",
        "lastUpdateTime": 1778224446923,
        "parentId": 0,
        "generalAgentId": 1681394,
        "submittedTime": 1778224446963,
        "paidOutCount": 1,
        "thisCodingAmount": 0,
        "auditStartTime": 0,
        "auditEndTime": 1778224446963,
        "auditDuration": 0,
        "assignerSysUserId": -1,
        "assignRemark": "",
        "assignTime": 0
      },
      {
        "orderNo": "WD20260508120833512001056a",
        "userId": 2247519,
        "userType": 0,
        "totalWithdrawCount": 1,
        "withdrawCategoryId": 100000,
        "withdrawChannelId": 10386,
        "thirdPayMerchantId": 340009,
        "tenantChannelId": 480028,
        "withdrawInfo": "{\"BankName\":\"v1卡\",\"BeneficiaryName\":\"tt\",\"AccountNo\":\"7772362242333\",\"IFSCCode\":\"SBIN0001234\",\"Email\":\"\",\"MobileNo\":\"661255645255\",\"BankCityCode\":\"\",\"BankProvinceCode\":\"\",\"BankBranchAddress\":\"\"}",
        "thirdOrderNo": "",
        "thirdState": 3,
        "thirdMessage": "收到回调,Success",
        "amount": 404,
        "actualAmount": 404,
        "uGold": 0,
        "uRate": 0,
        "fee": 0,
        "withdrawState": 1,
        "auditState": 0,
        "manualRemark": "",
        "orderRemark": "",
        "lockOperatorId": -1,
        "lockOperator": "system",
        "tenantId": 2001,
        "sysCurrency": "INR",
        "creator": "system",
        "createTime": 1778222313510,
        "lastUpdateMan": "",
        "lastUpdateTime": 1778222313585,
        "parentId": 0,
        "generalAgentId": 1681394,
        "submittedTime": 1778222313627,
        "paidOutCount": 1,
        "thisCodingAmount": 0,
        "auditStartTime": 0,
        "auditEndTime": 1778222313627,
        "auditDuration": 0,
        "assignerSysUserId": -1,
        "assignRemark": "",
        "assignTime": 0
      },
      {
        "orderNo": "WD20260508120828512001054a",
        "userId": 2247519,
        "userType": 0,
        "totalWithdrawCount": 1,
        "withdrawCategoryId": 100000,
        "withdrawChannelId": 10386,
        "thirdPayMerchantId": 340009,
        "tenantChannelId": 480028,
        "withdrawInfo": "{\"BankName\":\"v1卡\",\"BeneficiaryName\":\"tt\",\"AccountNo\":\"7772362242333\",\"IFSCCode\":\"SBIN0001234\",\"Email\":\"\",\"MobileNo\":\"661255645255\",\"BankCityCode\":\"\",\"BankProvinceCode\":\"\",\"BankBranchAddress\":\"\"}",
        "thirdOrderNo": "",
        "thirdState": 3,
        "thirdMessage": "收到回调,Success",
        "amount": 516,
        "actualAmount": 516,
        "uGold": 0,
        "uRate": 0,
        "fee": 0,
        "withdrawState": 1,
        "auditState": 0,
        "manualRemark": "",
        "orderRemark": "",
        "lockOperatorId": -1,
        "lockOperator": "system",
        "tenantId": 2001,
        "sysCurrency": "INR",
        "creator": "system",
        "createTime": 1778222308510,
        "lastUpdateMan": "",
        "lastUpdateTime": 1778222308596,
        "parentId": 0,
        "generalAgentId": 1681394,
        "submittedTime": 1778222308636,
        "paidOutCount": 1,
        "thisCodingAmount": 0,
        "auditStartTime": 0,
        "auditEndTime": 1778222308636,
        "auditDuration": 0,
        "assignerSysUserId": -1,
        "assignRemark": "",
        "assignTime": 0
      },
      {
        "orderNo": "WD20260508113050982001040a",
        "userId": 2247519,
        "userType": 0,
        "totalWithdrawCount": 1,
        "withdrawCategoryId": 100000,
        "withdrawChannelId": 10300,
        "thirdPayMerchantId": 344006,
        "tenantChannelId": 484031,
        "withdrawInfo": "{\"BankName\":\"v1卡\",\"BeneficiaryName\":\"tt\",\"AccountNo\":\"7772362242333\",\"IFSCCode\":\"SBIN0001234\",\"Email\":\"\",\"MobileNo\":\"661255645255\",\"BankCityCode\":\"\",\"BankProvinceCode\":\"\",\"BankBranchAddress\":\"\"}",
        "thirdOrderNo": "F1250127345940307968",
        "thirdState": 1,
        "thirdMessage": "success",
        "amount": 318,
        "actualAmount": 318,
        "uGold": 0,
        "uRate": 0,
        "fee": 0,
        "withdrawState": 3,
        "auditState": 0,
        "manualRemark": "",
        "orderRemark": "",
        "lockOperatorId": -1,
        "lockOperator": "system",
        "tenantId": 2001,
        "sysCurrency": "INR",
        "creator": "system",
        "createTime": 1778220050980,
        "lastUpdateMan": "",
        "lastUpdateTime": 1778220051056,
        "parentId": 0,
        "generalAgentId": 1681394,
        "submittedTime": 1778220051080,
        "paidOutCount": 1,
        "thisCodingAmount": 0,
        "auditStartTime": 0,
        "auditEndTime": 1778220051080,
        "auditDuration": 0,
        "assignerSysUserId": -1,
        "assignRemark": "",
        "assignTime": 0
      },
      {
        "orderNo": "WD20260508113046192001038a",
        "userId": 2247519,
        "userType": 0,
        "totalWithdrawCount": 1,
        "withdrawCategoryId": 100000,
        "withdrawChannelId": 10300,
        "thirdPayMerchantId": 344006,
        "tenantChannelId": 484031,
        "withdrawInfo": "{\"BankName\":\"v1卡\",\"BeneficiaryName\":\"tt\",\"AccountNo\":\"7772362242333\",\"IFSCCode\":\"SBIN0001234\",\"Email\":\"\",\"MobileNo\":\"661255645255\",\"BankCityCode\":\"\",\"BankProvinceCode\":\"\",\"BankBranchAddress\":\"\"}",
        "thirdOrderNo": "F1250127326034272256",
        "thirdState": 1,
        "thirdMessage": "success",
        "amount": 614,
        "actualAmount": 614,
        "uGold": 0,
        "uRate": 0,
        "fee": 0,
        "withdrawState": 3,
        "auditState": 0,
        "manualRemark": "",
        "orderRemark": "",
        "lockOperatorId": -1,
        "lockOperator": "system",
        "tenantId": 2001,
        "sysCurrency": "INR",
        "creator": "system",
        "createTime": 1778220046190,
        "lastUpdateMan": "",
        "lastUpdateTime": 1778220046307,
        "parentId": 0,
        "generalAgentId": 1681394,
        "submittedTime": 1778220046337,
        "paidOutCount": 1,
        "thisCodingAmount": 0,
        "auditStartTime": 0,
        "auditEndTime": 1778220046337,
        "auditDuration": 0,
        "assignerSysUserId": -1,
        "assignRemark": "",
        "assignTime": 0
      },
      {
        "orderNo": "WD20260508113043862001037a",
        "userId": 2247519,
        "userType": 0,
        "totalWithdrawCount": 1,
        "withdrawCategoryId": 100000,
        "withdrawChannelId": 10300,
        "thirdPayMerchantId": 344006,
        "tenantChannelId": 484031,
        "withdrawInfo": "{\"BankName\":\"v1卡\",\"BeneficiaryName\":\"tt\",\"AccountNo\":\"7772362242333\",\"IFSCCode\":\"SBIN0001234\",\"Email\":\"\",\"MobileNo\":\"661255645255\",\"BankCityCode\":\"\",\"BankProvinceCode\":\"\",\"BankBranchAddress\":\"\"}",
        "thirdOrderNo": "F1250127316034658304",
        "thirdState": 1,
        "thirdMessage": "success",
        "amount": 374,
        "actualAmount": 374,
        "uGold": 0,
        "uRate": 0,
        "fee": 0,
        "withdrawState": 3,
        "auditState": 0,
        "manualRemark": "",
        "orderRemark": "",
        "lockOperatorId": -1,
        "lockOperator": "system",
        "tenantId": 2001,
        "sysCurrency": "INR",
        "creator": "system",
        "createTime": 1778220043860,
        "lastUpdateMan": "",
        "lastUpdateTime": 1778220043929,
        "parentId": 0,
        "generalAgentId": 1681394,
        "submittedTime": 1778220043954,
        "paidOutCount": 1,
        "thisCodingAmount": 0,
        "auditStartTime": 0,
        "auditEndTime": 1778220043954,
        "auditDuration": 0,
        "assignerSysUserId": -1,
        "assignRemark": "",
        "assignTime": 0
      },
      {
        "orderNo": "WD20260508113032192001036a",
        "userId": 2247519,
        "userType": 0,
        "totalWithdrawCount": 1,
        "withdrawCategoryId": 100000,
        "withdrawChannelId": 10300,
        "thirdPayMerchantId": 344006,
        "tenantChannelId": 484031,
        "withdrawInfo": "{\"BankName\":\"v1卡\",\"BeneficiaryName\":\"tt\",\"AccountNo\":\"7772362242333\",\"IFSCCode\":\"SBIN0001234\",\"Email\":\"\",\"MobileNo\":\"661255645255\",\"BankCityCode\":\"\",\"BankProvinceCode\":\"\",\"BankBranchAddress\":\"\"}",
        "thirdOrderNo": "F1250127267234324480",
        "thirdState": 1,
        "thirdMessage": "success",
        "amount": 450,
        "actualAmount": 450,
        "uGold": 0,
        "uRate": 0,
        "fee": 0,
        "withdrawState": 3,
        "auditState": 0,
        "manualRemark": "",
        "orderRemark": "",
        "lockOperatorId": -1,
        "lockOperator": "system",
        "tenantId": 2001,
        "sysCurrency": "INR",
        "creator": "system",
        "createTime": 1778220032190,
        "lastUpdateMan": "",
        "lastUpdateTime": 1778220032263,
        "parentId": 0,
        "generalAgentId": 1681394,
        "submittedTime": 1778220032317,
        "paidOutCount": 1,
        "thisCodingAmount": 0,
        "auditStartTime": 0,
        "auditEndTime": 1778220032317,
        "auditDuration": 0,
        "assignerSysUserId": -1,
        "assignRemark": "",
        "assignTime": 0
      },
      {
        "orderNo": "WD20260508113029712001035a",
        "userId": 2247519,
        "userType": 0,
        "totalWithdrawCount": 1,
        "withdrawCategoryId": 100000,
        "withdrawChannelId": 10300,
        "thirdPayMerchantId": 344006,
        "tenantChannelId": 484031,
        "withdrawInfo": "{\"BankName\":\"v1卡\",\"BeneficiaryName\":\"tt\",\"AccountNo\":\"7772362242333\",\"IFSCCode\":\"SBIN0001234\",\"Email\":\"\",\"MobileNo\":\"661255645255\",\"BankCityCode\":\"\",\"BankProvinceCode\":\"\",\"BankBranchAddress\":\"\"}",
        "thirdOrderNo": "F1250127256752492544",
        "thirdState": 1,
        "thirdMessage": "success",
        "amount": 512,
        "actualAmount": 512,
        "uGold": 0,
        "uRate": 0,
        "fee": 0,
        "withdrawState": 3,
        "auditState": 0,
        "manualRemark": "",
        "orderRemark": "",
        "lockOperatorId": -1,
        "lockOperator": "system",
        "tenantId": 2001,
        "sysCurrency": "INR",
        "creator": "system",
        "createTime": 1778220029710,
        "lastUpdateMan": "",
        "lastUpdateTime": 1778220029780,
        "parentId": 0,
        "generalAgentId": 1681394,
        "submittedTime": 1778220029814,
        "paidOutCount": 1,
        "thisCodingAmount": 0,
        "auditStartTime": 0,
        "auditEndTime": 1778220029814,
        "auditDuration": 0,
        "assignerSysUserId": -1,
        "assignRemark": "",
        "assignTime": 0
      }
    ],
    "summary": {
      "totalOrderCount": 2861,
      "totalAmount": 4623757,
      "totalActualAmount": 4612624.2,
      "totalFee": 11132.8,
      "totalUGold": 246.28,
      "totalThisCodingAmount": 12123.44
    },
    "pageNo": 1,
    "totalPage": 144,
    "totalCount": 2861
  },
  "code": 0,
  "msg": "成功",
  "msgCode": 0
}