{
  "data": {
    "list": [
      {
        "tenantId": 2001,
        "tenantInfo": "(2001)sit-inr",
        "longUserId": 20010002247491,
        "userId": 2247491,
        "orderNo": "WD20260508184300992001097a",
        "withdrawCategoryId": 100000,
        "withdrawChannelId": 0,
        "bankName": "CITI",
        "beneficiaryName": "EWER",
        "accountNo": "12457412287",
        "ifscCode": "AAAA0BBBBBB",
        "email": "",
        "mobileNO": "668888888888",
        "bankCityCode": "",
        "bankProvinceCode": "",
        "bankBranchAddress": "",
        "sysCurrency": "INR",
        "thisCodingAmount": 0,
        "totalWithdrawCount": 0,
        "fee": 0,
        "amount": 120,
        "actualAmount": 120,
        "uGold": 0,
        "uRate": 0,
        "actualAmountDetail": "120.0000",
        "withdrawState": 0,
        "createTime": 1778245980990,
        "auditEndTime": 0,
        "completeTime": 0,
        "thirdPartyDetail": {
          "thirdPayCode": "",
          "thirdOrderNo": "",
          "thirdState": 0,
          "thirdMessage": "",
          "paidOutCount": 0
        },
        "manualRemark": "未开启自动出款配置",
        "orderRemark": "",
        "remarkInfo": "人工备注：未开启自动出款配置",
        "lockOperator": ""
      },
      {
        "tenantId": 2001,
        "tenantInfo": "(2001)sit-inr",
        "longUserId": 404047,
        "userId": 404047,
        "orderNo": "TestWD202605081824049120010031",
        "withdrawCategoryId": 100000,
        "withdrawChannelId": 10386,
        "bankName": "INR Test Bank A",
        "beneficiaryName": "INR Test User A",
        "accountNo": "5123450000000008",
        "ifscCode": "SBIN0006418",
        "email": "",
        "mobileNO": "918800000001",
        "bankCityCode": "",
        "bankProvinceCode": "",
        "bankBranchAddress": "",
        "sysCurrency": "INR",
        "thisCodingAmount": 0,
        "totalWithdrawCount": 0,
        "fee": 0,
        "amount": 1000,
        "actualAmount": 1000,
        "uGold": 0,
        "uRate": 0,
        "actualAmountDetail": "1000.0000",
        "withdrawState": 1,
        "createTime": 1778244844910,
        "auditEndTime": 0,
        "completeTime": 0,
        "thirdPartyDetail": {
          "thirdPayCode": "10386 → Umoney-自动回调",
          "thirdOrderNo": "",
          "thirdState": 3,
          "thirdMessage": "收到回调,Success",
          "paidOutCount": 0
        },
        "manualRemark": "测试代付拉单",
        "orderRemark": "测试代付拉单",
        "remarkInfo": "人工备注：测试代付拉单\n订单备注：测试代付拉单",
        "lockOperator": "ben_jmeter_002"
      },
      {
        "tenantId": 2001,
        "tenantInfo": "(2001)sit-inr",
        "longUserId": 20010002247491,
        "userId": 2247491,
        "orderNo": "WD20260508182359032001093a",
        "withdrawCategoryId": 100000,
        "withdrawChannelId": 10300,
        "bankName": "CITI",
        "beneficiaryName": "EWER",
        "accountNo": "12457412287",
        "ifscCode": "AAAA0BBBBBB",
        "email": "",
        "mobileNO": "668888888888",
        "bankCityCode": "",
        "bankProvinceCode": "",
        "bankBranchAddress": "",
        "sysCurrency": "INR",
        "thisCodingAmount": 0,
        "totalWithdrawCount": 0,
        "fee": 0,
        "amount": 100,
        "actualAmount": 100,
        "uGold": 0,
        "uRate": 0,
        "actualAmountDetail": "100.0000",
        "withdrawState": 3,
        "createTime": 1778244839030,
        "auditEndTime": 0,
        "completeTime": 0,
        "thirdPartyDetail": {
          "thirdPayCode": "10300 → 三方不自动回调",
          "thirdOrderNo": "WD20260508182359032001093a",
          "thirdState": 5,
          "thirdMessage": "",
          "paidOutCount": 2
        },
        "manualRemark": "未开启自动出款配置",
        "orderRemark": "",
        "remarkInfo": "人工备注：未开启自动出款配置",
        "lockOperator": "milozy01"
      },
      {
        "tenantId": 2001,
        "tenantInfo": "(2001)sit-inr",
        "longUserId": 404047,
        "userId": 404047,
        "orderNo": "TestWD202605081823446020010021",
        "withdrawCategoryId": 100000,
        "withdrawChannelId": 10300,
        "bankName": "INR Test Bank A",
        "beneficiaryName": "INR Test User A",
        "accountNo": "5123450000000008",
        "ifscCode": "SBIN0006418",
        "email": "",
        "mobileNO": "918800000001",
        "bankCityCode": "",
        "bankProvinceCode": "",
        "bankBranchAddress": "",
        "sysCurrency": "INR",
        "thisCodingAmount": 0,
        "totalWithdrawCount": 0,
        "fee": 0,
        "amount": 1000,
        "actualAmount": 1000,
        "uGold": 0,
        "uRate": 0,
        "actualAmountDetail": "1000.0000",
        "withdrawState": 3,
        "createTime": 1778244824600,
        "auditEndTime": 0,
        "completeTime": 0,
        "thirdPartyDetail": {
          "thirdPayCode": "10300 → 三方不自动回调",
          "thirdOrderNo": "",
          "thirdState": 2,
          "thirdMessage": "Insufficient amount available!",
          "paidOutCount": 0
        },
        "manualRemark": "测试代付拉单",
        "orderRemark": "测试代付拉单",
        "remarkInfo": "人工备注：测试代付拉单\n订单备注：测试代付拉单",
        "lockOperator": "ben_jmeter_002"
      },
      {
        "tenantId": 2001,
        "tenantInfo": "(2001)sit-inr",
        "longUserId": 404047,
        "userId": 404047,
        "orderNo": "TestWD202605081823082920010011",
        "withdrawCategoryId": 100010,
        "withdrawChannelId": 26003,
        "bankName": "INR Test Bank A",
        "beneficiaryName": "INR Test User A",
        "accountNo": "5123450000000008",
        "ifscCode": "SBIN0006418",
        "email": "",
        "mobileNO": "918800000001",
        "bankCityCode": "",
        "bankProvinceCode": "",
        "bankBranchAddress": "",
        "sysCurrency": "INR",
        "thisCodingAmount": 0,
        "totalWithdrawCount": 0,
        "fee": 0,
        "amount": 1000,
        "actualAmount": 1000,
        "uGold": 0,
        "uRate": 0,
        "actualAmountDetail": "1000.0000",
        "withdrawState": 3,
        "createTime": 1778244788290,
        "auditEndTime": 0,
        "completeTime": 0,
        "thirdPartyDetail": {
          "thirdPayCode": "26003 → 222",
          "thirdOrderNo": "",
          "thirdState": 4,
          "thirdMessage": "调用异常:三方厂商通道不存在",
          "paidOutCount": 0
        },
        "manualRemark": "测试代付拉单",
        "orderRemark": "测试代付拉单",
        "remarkInfo": "人工备注：测试代付拉单\n订单备注：测试代付拉单",
        "lockOperator": "ben_jmeter_002"
      },
      {
        "tenantId": 2001,
        "tenantInfo": "(2001)sit-inr",
        "longUserId": 20010002247491,
        "userId": 2247491,
        "orderNo": "WD20260508181834182001092a",
        "withdrawCategoryId": 100000,
        "withdrawChannelId": 0,
        "bankName": "CITI",
        "beneficiaryName": "EWER",
        "accountNo": "12457412287",
        "ifscCode": "AAAA0BBBBBB",
        "email": "",
        "mobileNO": "668888888888",
        "bankCityCode": "",
        "bankProvinceCode": "",
        "bankBranchAddress": "",
        "sysCurrency": "INR",
        "thisCodingAmount": 0,
        "totalWithdrawCount": 0,
        "fee": 0,
        "amount": 100,
        "actualAmount": 100,
        "uGold": 0,
        "uRate": 0,
        "actualAmountDetail": "100.0000",
        "withdrawState": 2,
        "createTime": 1778244514180,
        "auditEndTime": 1778244556978,
        "completeTime": 1778244556978,
        "thirdPartyDetail": {
          "thirdPayCode": "",
          "thirdOrderNo": "",
          "thirdState": 2,
          "thirdMessage": "",
          "paidOutCount": 0
        },
        "manualRemark": "1212",
        "orderRemark": "",
        "remarkInfo": "人工备注：1212",
        "lockOperator": "milozy01"
      },
      {
        "tenantId": 2001,
        "tenantInfo": "(2001)sit-inr",
        "longUserId": 20010002247491,
        "userId": 2247491,
        "orderNo": "WD20260508174010522001091a",
        "withdrawCategoryId": 100000,
        "withdrawChannelId": 8,
        "bankName": "CITI",
        "beneficiaryName": "EWER",
        "accountNo": "12457412287",
        "ifscCode": "AAAA0BBBBBB",
        "email": "",
        "mobileNO": "668888888888",
        "bankCityCode": "",
        "bankProvinceCode": "",
        "bankBranchAddress": "",
        "sysCurrency": "INR",
        "thisCodingAmount": 0,
        "totalWithdrawCount": 0,
        "fee": 0,
        "amount": 100,
        "actualAmount": 100,
        "uGold": 0,
        "uRate": 0,
        "actualAmountDetail": "100.0000",
        "withdrawState": 1,
        "createTime": 1778242210520,
        "auditEndTime": 1778242285610,
        "completeTime": 1778242285610,
        "thirdPartyDetail": {
          "thirdPayCode": "8 → Manual Handle",
          "thirdOrderNo": "",
          "thirdState": 3,
          "thirdMessage": "",
          "paidOutCount": 0
        },
        "manualRemark": "12",
        "orderRemark": "",
        "remarkInfo": "人工备注：12",
        "lockOperator": "milozy01"
      },
      {
        "tenantId": 2001,
        "tenantInfo": "(2001)sit-inr",
        "longUserId": 404047,
        "userId": 404047,
        "orderNo": "TestWD202605081640060220010088",
        "withdrawCategoryId": 100000,
        "withdrawChannelId": 10386,
        "bankName": "INR Test Bank A",
        "beneficiaryName": "INR Test User A",
        "accountNo": "5123450000000008",
        "ifscCode": "SBIN0006418",
        "email": "",
        "mobileNO": "918800000001",
        "bankCityCode": "",
        "bankProvinceCode": "",
        "bankBranchAddress": "",
        "sysCurrency": "INR",
        "thisCodingAmount": 0,
        "totalWithdrawCount": 0,
        "fee": 0,
        "amount": 1000,
        "actualAmount": 1000,
        "uGold": 0,
        "uRate": 0,
        "actualAmountDetail": "1000.0000",
        "withdrawState": 1,
        "createTime": 1778238606020,
        "auditEndTime": 0,
        "completeTime": 0,
        "thirdPartyDetail": {
          "thirdPayCode": "10386 → Umoney-自动回调",
          "thirdOrderNo": "",
          "thirdState": 3,
          "thirdMessage": "收到回调,Success",
          "paidOutCount": 0
        },
        "manualRemark": "测试代付拉单",
        "orderRemark": "测试代付拉单",
        "remarkInfo": "人工备注：测试代付拉单\n订单备注：测试代付拉单",
        "lockOperator": "ben_jmeter_002"
      },
      {
        "tenantId": 2001,
        "tenantInfo": "(2001)sit-inr",
        "longUserId": 404047,
        "userId": 404047,
        "orderNo": "TestWD202605081636102420010078",
        "withdrawCategoryId": 100000,
        "withdrawChannelId": 10386,
        "bankName": "INR Test Bank A",
        "beneficiaryName": "INR Test User A",
        "accountNo": "5123450000000008",
        "ifscCode": "SBIN0006418",
        "email": "",
        "mobileNO": "918800000001",
        "bankCityCode": "",
        "bankProvinceCode": "",
        "bankBranchAddress": "",
        "sysCurrency": "INR",
        "thisCodingAmount": 0,
        "totalWithdrawCount": 0,
        "fee": 0,
        "amount": 1000,
        "actualAmount": 1000,
        "uGold": 0,
        "uRate": 0,
        "actualAmountDetail": "1000.0000",
        "withdrawState": 1,
        "createTime": 1778238370240,
        "auditEndTime": 0,
        "completeTime": 0,
        "thirdPartyDetail": {
          "thirdPayCode": "10386 → Umoney-自动回调",
          "thirdOrderNo": "",
          "thirdState": 3,
          "thirdMessage": "收到回调,Success",
          "paidOutCount": 0
        },
        "manualRemark": "测试代付拉单",
        "orderRemark": "测试代付拉单",
        "remarkInfo": "人工备注：测试代付拉单\n订单备注：测试代付拉单",
        "lockOperator": "ben_jmeter_002"
      },
      {
        "tenantId": 2001,
        "tenantInfo": "(2001)sit-inr",
        "longUserId": 404047,
        "userId": 404047,
        "orderNo": "TestWD202605081635515320010068",
        "withdrawCategoryId": 100000,
        "withdrawChannelId": 10300,
        "bankName": "INR Test Bank A",
        "beneficiaryName": "INR Test User A",
        "accountNo": "5123450000000008",
        "ifscCode": "SBIN0006418",
        "email": "",
        "mobileNO": "918800000001",
        "bankCityCode": "",
        "bankProvinceCode": "",
        "bankBranchAddress": "",
        "sysCurrency": "INR",
        "thisCodingAmount": 0,
        "totalWithdrawCount": 0,
        "fee": 0,
        "amount": 1000,
        "actualAmount": 1000,
        "uGold": 0,
        "uRate": 0,
        "actualAmountDetail": "1000.0000",
        "withdrawState": 3,
        "createTime": 1778238351530,
        "auditEndTime": 0,
        "completeTime": 0,
        "thirdPartyDetail": {
          "thirdPayCode": "10300 → 三方不自动回调",
          "thirdOrderNo": "",
          "thirdState": 2,
          "thirdMessage": "Insufficient amount available!",
          "paidOutCount": 0
        },
        "manualRemark": "测试代付拉单",
        "orderRemark": "测试代付拉单",
        "remarkInfo": "人工备注：测试代付拉单\n订单备注：测试代付拉单",
        "lockOperator": "ben_jmeter_002"
      },
      {
        "tenantId": 2001,
        "tenantInfo": "(2001)sit-inr",
        "longUserId": 404047,
        "userId": 404047,
        "orderNo": "TestWD202605081632211620010058",
        "withdrawCategoryId": 100000,
        "withdrawChannelId": 10386,
        "bankName": "INR Test Bank A",
        "beneficiaryName": "INR Test User A",
        "accountNo": "5123450000000008",
        "ifscCode": "SBIN0006418",
        "email": "",
        "mobileNO": "918800000001",
        "bankCityCode": "",
        "bankProvinceCode": "",
        "bankBranchAddress": "",
        "sysCurrency": "INR",
        "thisCodingAmount": 0,
        "totalWithdrawCount": 0,
        "fee": 0,
        "amount": 1000,
        "actualAmount": 1000,
        "uGold": 0,
        "uRate": 0,
        "actualAmountDetail": "1000.0000",
        "withdrawState": 1,
        "createTime": 1778238141160,
        "auditEndTime": 0,
        "completeTime": 0,
        "thirdPartyDetail": {
          "thirdPayCode": "10386 → Umoney-自动回调",
          "thirdOrderNo": "",
          "thirdState": 3,
          "thirdMessage": "收到回调,Success",
          "paidOutCount": 0
        },
        "manualRemark": "测试代付拉单",
        "orderRemark": "测试代付拉单",
        "remarkInfo": "人工备注：测试代付拉单\n订单备注：测试代付拉单",
        "lockOperator": "ben_jmeter_002"
      },
      {
        "tenantId": 2001,
        "tenantInfo": "(2001)sit-inr",
        "longUserId": 130000,
        "userId": 130000,
        "orderNo": "TestWD202605081616449720010048",
        "withdrawCategoryId": 100010,
        "withdrawChannelId": 26004,
        "bankName": "INR Test Fast UPI",
        "beneficiaryName": "INR Fast UPI User",
        "accountNo": "fast.upi.test@oksbi",
        "ifscCode": "ICIC0000001",
        "email": "",
        "mobileNO": "918800000005",
        "bankCityCode": "",
        "bankProvinceCode": "",
        "bankBranchAddress": "",
        "sysCurrency": "INR",
        "thisCodingAmount": 0,
        "totalWithdrawCount": 0,
        "fee": 0,
        "amount": 100,
        "actualAmount": 100,
        "uGold": 0,
        "uRate": 0,
        "actualAmountDetail": "100.0000",
        "withdrawState": 3,
        "createTime": 1778237204970,
        "auditEndTime": 0,
        "completeTime": 0,
        "thirdPartyDetail": {
          "thirdPayCode": "26004 → 111",
          "thirdOrderNo": "",
          "thirdState": 4,
          "thirdMessage": "调用异常:三方厂商通道不存在",
          "paidOutCount": 0
        },
        "manualRemark": "测试代付拉单",
        "orderRemark": "测试代付拉单",
        "remarkInfo": "人工备注：测试代付拉单\n订单备注：测试代付拉单",
        "lockOperator": "ar_admin"
      },
      {
        "tenantId": 2001,
        "tenantInfo": "(2001)sit-inr",
        "longUserId": 20010002247519,
        "userId": 2247519,
        "orderNo": "WD20260508154322822001082a",
        "withdrawCategoryId": 100000,
        "withdrawChannelId": 0,
        "bankName": "v1卡",
        "beneficiaryName": "tt",
        "accountNo": "7772362242333",
        "ifscCode": "SBIN0001234",
        "email": "",
        "mobileNO": "661255645255",
        "bankCityCode": "",
        "bankProvinceCode": "",
        "bankBranchAddress": "",
        "sysCurrency": "INR",
        "thisCodingAmount": 0,
        "totalWithdrawCount": 1,
        "fee": 0,
        "amount": 455,
        "actualAmount": 455,
        "uGold": 0,
        "uRate": 0,
        "actualAmountDetail": "455.0000",
        "withdrawState": 1,
        "createTime": 1778235202820,
        "auditEndTime": 0,
        "completeTime": 0,
        "thirdPartyDetail": {
          "thirdPayCode": "",
          "thirdOrderNo": "",
          "thirdState": 3,
          "thirdMessage": "收到回调,Success",
          "paidOutCount": 0
        },
        "manualRemark": "未开启自动出款配置",
        "orderRemark": "",
        "remarkInfo": "人工备注：未开启自动出款配置",
        "lockOperator": ""
      },
      {
        "tenantId": 2001,
        "tenantInfo": "(2001)sit-inr",
        "longUserId": 20010002247519,
        "userId": 2247519,
        "orderNo": "WD20260508154320442001081a",
        "withdrawCategoryId": 100000,
        "withdrawChannelId": 0,
        "bankName": "v1卡",
        "beneficiaryName": "tt",
        "accountNo": "7772362242333",
        "ifscCode": "SBIN0001234",
        "email": "",
        "mobileNO": "661255645255",
        "bankCityCode": "",
        "bankProvinceCode": "",
        "bankBranchAddress": "",
        "sysCurrency": "INR",
        "thisCodingAmount": 0,
        "totalWithdrawCount": 1,
        "fee": 0,
        "amount": 539,
        "actualAmount": 539,
        "uGold": 0,
        "uRate": 0,
        "actualAmountDetail": "539.0000",
        "withdrawState": 0,
        "createTime": 1778235200440,
        "auditEndTime": 0,
        "completeTime": 0,
        "thirdPartyDetail": {
          "thirdPayCode": "",
          "thirdOrderNo": "",
          "thirdState": 0,
          "thirdMessage": "",
          "paidOutCount": 0
        },
        "manualRemark": "未开启自动出款配置",
        "orderRemark": "",
        "remarkInfo": "人工备注：未开启自动出款配置",
        "lockOperator": ""
      },
      {
        "tenantId": 2001,
        "tenantInfo": "(2001)sit-inr",
        "longUserId": 20010002247519,
        "userId": 2247519,
        "orderNo": "WD20260508154318122001080a",
        "withdrawCategoryId": 100000,
        "withdrawChannelId": 0,
        "bankName": "v1卡",
        "beneficiaryName": "tt",
        "accountNo": "7772362242333",
        "ifscCode": "SBIN0001234",
        "email": "",
        "mobileNO": "661255645255",
        "bankCityCode": "",
        "bankProvinceCode": "",
        "bankBranchAddress": "",
        "sysCurrency": "INR",
        "thisCodingAmount": 0,
        "totalWithdrawCount": 1,
        "fee": 0,
        "amount": 823,
        "actualAmount": 823,
        "uGold": 0,
        "uRate": 0,
        "actualAmountDetail": "823.0000",
        "withdrawState": 0,
        "createTime": 1778235198120,
        "auditEndTime": 0,
        "completeTime": 0,
        "thirdPartyDetail": {
          "thirdPayCode": "",
          "thirdOrderNo": "",
          "thirdState": 0,
          "thirdMessage": "",
          "paidOutCount": 0
        },
        "manualRemark": "未开启自动出款配置",
        "orderRemark": "",
        "remarkInfo": "人工备注：未开启自动出款配置",
        "lockOperator": ""
      },
      {
        "tenantId": 2001,
        "tenantInfo": "(2001)sit-inr",
        "longUserId": 20010002247519,
        "userId": 2247519,
        "orderNo": "WD20260508154315822001079a",
        "withdrawCategoryId": 100000,
        "withdrawChannelId": 0,
        "bankName": "v1卡",
        "beneficiaryName": "tt",
        "accountNo": "7772362242333",
        "ifscCode": "SBIN0001234",
        "email": "",
        "mobileNO": "661255645255",
        "bankCityCode": "",
        "bankProvinceCode": "",
        "bankBranchAddress": "",
        "sysCurrency": "INR",
        "thisCodingAmount": 0,
        "totalWithdrawCount": 1,
        "fee": 0,
        "amount": 753,
        "actualAmount": 753,
        "uGold": 0,
        "uRate": 0,
        "actualAmountDetail": "753.0000",
        "withdrawState": 0,
        "createTime": 1778235195820,
        "auditEndTime": 0,
        "completeTime": 0,
        "thirdPartyDetail": {
          "thirdPayCode": "",
          "thirdOrderNo": "",
          "thirdState": 0,
          "thirdMessage": "",
          "paidOutCount": 0
        },
        "manualRemark": "未开启自动出款配置",
        "orderRemark": "",
        "remarkInfo": "人工备注：未开启自动出款配置",
        "lockOperator": ""
      },
      {
        "tenantId": 2001,
        "tenantInfo": "(2001)sit-inr",
        "longUserId": 20010002247519,
        "userId": 2247519,
        "orderNo": "WD20260508154313522001078a",
        "withdrawCategoryId": 100000,
        "withdrawChannelId": 0,
        "bankName": "v1卡",
        "beneficiaryName": "tt",
        "accountNo": "7772362242333",
        "ifscCode": "SBIN0001234",
        "email": "",
        "mobileNO": "661255645255",
        "bankCityCode": "",
        "bankProvinceCode": "",
        "bankBranchAddress": "",
        "sysCurrency": "INR",
        "thisCodingAmount": 0,
        "totalWithdrawCount": 1,
        "fee": 0,
        "amount": 497,
        "actualAmount": 497,
        "uGold": 0,
        "uRate": 0,
        "actualAmountDetail": "497.0000",
        "withdrawState": 1,
        "createTime": 1778235193520,
        "auditEndTime": 0,
        "completeTime": 0,
        "thirdPartyDetail": {
          "thirdPayCode": "",
          "thirdOrderNo": "",
          "thirdState": 3,
          "thirdMessage": "收到回调,Success",
          "paidOutCount": 0
        },
        "manualRemark": "未开启自动出款配置",
        "orderRemark": "",
        "remarkInfo": "人工备注：未开启自动出款配置",
        "lockOperator": ""
      },
      {
        "tenantId": 2001,
        "tenantInfo": "(2001)sit-inr",
        "longUserId": 20010002247519,
        "userId": 2247519,
        "orderNo": "WD20260508154311232001077a",
        "withdrawCategoryId": 100000,
        "withdrawChannelId": 0,
        "bankName": "v1卡",
        "beneficiaryName": "tt",
        "accountNo": "7772362242333",
        "ifscCode": "SBIN0001234",
        "email": "",
        "mobileNO": "661255645255",
        "bankCityCode": "",
        "bankProvinceCode": "",
        "bankBranchAddress": "",
        "sysCurrency": "INR",
        "thisCodingAmount": 0,
        "totalWithdrawCount": 1,
        "fee": 0,
        "amount": 934,
        "actualAmount": 934,
        "uGold": 0,
        "uRate": 0,
        "actualAmountDetail": "934.0000",
        "withdrawState": 1,
        "createTime": 1778235191230,
        "auditEndTime": 0,
        "completeTime": 0,
        "thirdPartyDetail": {
          "thirdPayCode": "",
          "thirdOrderNo": "",
          "thirdState": 3,
          "thirdMessage": "收到回调,Success",
          "paidOutCount": 0
        },
        "manualRemark": "未开启自动出款配置",
        "orderRemark": "",
        "remarkInfo": "人工备注：未开启自动出款配置",
        "lockOperator": ""
      },
      {
        "tenantId": 2001,
        "tenantInfo": "(2001)sit-inr",
        "longUserId": 20010002247519,
        "userId": 2247519,
        "orderNo": "WD20260508154308942001076a",
        "withdrawCategoryId": 100000,
        "withdrawChannelId": 0,
        "bankName": "v1卡",
        "beneficiaryName": "tt",
        "accountNo": "7772362242333",
        "ifscCode": "SBIN0001234",
        "email": "",
        "mobileNO": "661255645255",
        "bankCityCode": "",
        "bankProvinceCode": "",
        "bankBranchAddress": "",
        "sysCurrency": "INR",
        "thisCodingAmount": 0,
        "totalWithdrawCount": 1,
        "fee": 0,
        "amount": 655,
        "actualAmount": 655,
        "uGold": 0,
        "uRate": 0,
        "actualAmountDetail": "655.0000",
        "withdrawState": 0,
        "createTime": 1778235188940,
        "auditEndTime": 0,
        "completeTime": 0,
        "thirdPartyDetail": {
          "thirdPayCode": "",
          "thirdOrderNo": "",
          "thirdState": 0,
          "thirdMessage": "",
          "paidOutCount": 0
        },
        "manualRemark": "未开启自动出款配置",
        "orderRemark": "",
        "remarkInfo": "人工备注：未开启自动出款配置",
        "lockOperator": ""
      },
      {
        "tenantId": 2001,
        "tenantInfo": "(2001)sit-inr",
        "longUserId": 20010002247519,
        "userId": 2247519,
        "orderNo": "WD20260508154306662001075a",
        "withdrawCategoryId": 100000,
        "withdrawChannelId": 0,
        "bankName": "v1卡",
        "beneficiaryName": "tt",
        "accountNo": "7772362242333",
        "ifscCode": "SBIN0001234",
        "email": "",
        "mobileNO": "661255645255",
        "bankCityCode": "",
        "bankProvinceCode": "",
        "bankBranchAddress": "",
        "sysCurrency": "INR",
        "thisCodingAmount": 0,
        "totalWithdrawCount": 1,
        "fee": 0,
        "amount": 697,
        "actualAmount": 697,
        "uGold": 0,
        "uRate": 0,
        "actualAmountDetail": "697.0000",
        "withdrawState": 3,
        "createTime": 1778235186660,
        "auditEndTime": 0,
        "completeTime": 0,
        "thirdPartyDetail": {
          "thirdPayCode": "",
          "thirdOrderNo": "",
          "thirdState": 2,
          "thirdMessage": "收到回调,失败",
          "paidOutCount": 0
        },
        "manualRemark": "未开启自动出款配置",
        "orderRemark": "",
        "remarkInfo": "人工备注：未开启自动出款配置",
        "lockOperator": ""
      }
    ],
    "summary": {
      "pageOrderCount": 20,
      "pageAmount": 12873,
      "pageActualAmount": 12873,
      "pageFee": 0,
      "pageThisCodingAmount": 0,
      "totalOrderCount": 64694,
      "totalAmount": 45605435,
      "totalActualAmount": 45590878.2,
      "totalFee": 14556.8,
      "totalThisCodingAmount": 12131.32
    },
    "pageNo": 1,
    "totalPage": 3235,
    "totalCount": 64694
  },
  "code": 0,
  "msg": "成功",
  "msgCode": 0
}