{
  "data": {
    "list": [
      {
        "id": 134007,
        "tenantId": 2001,
        "channelId": 0,
        "customName": "PPP554",
        "bankName": "TRC",
        "bankCode": "25",
        "state": 0,
        "isClosedBySystem": false,
        "weight": 0,
        "rechargeLevel": "",
        "accountNo": "spuCV4YtsxKAO12jaJmJdFhVG5DJt0HKlY",
        "holderName": "",
        "subBranchName": "",
        "ifsccode": "",
        "qrCodeURL": "https://sitossimg.uknm5qqzv3vqzdn9xgn5.com/lotto/1000/2001/other/014844258-176-file_20260505134844154.webp",
        "minRechargeAmount": 0,
        "maxRechargeAmount": 0,
        "totalLimitAmount": 0,
        "totalLimitCount": 0,
        "currentTotalLimitAmount": 0,
        "currentTotalCount": 0,
        "sort": 416,
        "remark": "PPP554",
        "lastClearTime": 1778178600000,
        "creator": "org_figo",
        "createTime": 1777988992114,
        "lastUpdateMan": "org_figo",
        "lastUpdateTime": 1777989077640
      },
      {
        "id": 130748,
        "tenantId": 2001,
        "channelId": 0,
        "customName": "TEST-USDT3",
        "bankName": "TRC",
        "bankCode": "25",
        "state": 1,
        "isClosedBySystem": false,
        "weight": 0,
        "rechargeLevel": "",
        "accountNo": "TLnfW6XsqNZNZR8T54op1kdg1FoaWFFWHd",
        "holderName": "",
        "subBranchName": "",
        "ifsccode": "",
        "qrCodeURL": "https://sitossimg.uknm5qqzv3vqzdn9xgn5.com/lotto/210003/2001/other/095425689-100-file_20260404095425586.webp",
        "minRechargeAmount": 0,
        "maxRechargeAmount": 0,
        "totalLimitAmount": 0,
        "totalLimitCount": 0,
        "currentTotalLimitAmount": 0,
        "currentTotalCount": 0,
        "sort": 415,
        "remark": "1",
        "lastClearTime": 1778178600000,
        "creator": "admin",
        "createTime": 3,
        "lastUpdateMan": "org_figo",
        "lastUpdateTime": 1777051359462
      },
      {
        "id": 130747,
        "tenantId": 2001,
        "channelId": 0,
        "customName": "PPP552",
        "bankName": "",
        "bankCode": "",
        "state": 0,
        "isClosedBySystem": false,
        "weight": 0,
        "rechargeLevel": "",
        "accountNo": "OEiVosGCLKZiYs8YSJ8TriabKofU9K1ucB",
        "holderName": "",
        "subBranchName": "",
        "ifsccode": "",
        "qrCodeURL": "",
        "minRechargeAmount": 0,
        "maxRechargeAmount": 0,
        "totalLimitAmount": 0,
        "totalLimitCount": 0,
        "currentTotalLimitAmount": 0,
        "currentTotalCount": 0,
        "sort": 414,
        "remark": "",
        "lastClearTime": 1778178600000,
        "creator": "admin",
        "createTime": 3,
        "lastUpdateMan": "admin",
        "lastUpdateTime": 1
      },
      {
        "id": 130746,
        "tenantId": 2001,
        "channelId": 0,
        "customName": "PPP551",
        "bankName": "TRC",
        "bankCode": "25",
        "state": 1,
        "isClosedBySystem": false,
        "weight": 0,
        "rechargeLevel": "",
        "accountNo": "MAUqzSOxog5rfWiMw4MEXjpm9ifDYy6m1L",
        "holderName": "",
        "subBranchName": "",
        "ifsccode": "",
        "qrCodeURL": "https://sitossimg.uknm5qqzv3vqzdn9xgn5.com/lotto/210003/2001/other/095425689-100-file_20260404095425586.webp",
        "minRechargeAmount": 0,
        "maxRechargeAmount": 0,
        "totalLimitAmount": 0,
        "totalLimitCount": 0,
        "currentTotalLimitAmount": 0,
        "currentTotalCount": 0,
        "sort": 413,
        "remark": "",
        "lastClearTime": 1778178600000,
        "creator": "admin",
        "createTime": 3,
        "lastUpdateMan": "org_figo",
        "lastUpdateTime": 1777017468910
      },
      {
        "id": 130745,
        "tenantId": 2001,
        "channelId": 0,
        "customName": "PPP550",
        "bankName": "",
        "bankCode": "",
        "state": 0,
        "isClosedBySystem": false,
        "weight": 0,
        "rechargeLevel": "",
        "accountNo": "pGIHIiCacxcbVeWisf6hGzRT1x3fYWKVfb",
        "holderName": "",
        "subBranchName": "",
        "ifsccode": "",
        "qrCodeURL": "https://sitossimg.uknm5qqzv3vqzdn9xgn5.com/lotto/210003/2001/other/095425689-100-file_20260404095425586.webp",
        "minRechargeAmount": 0,
        "maxRechargeAmount": 0,
        "totalLimitAmount": 0,
        "totalLimitCount": 0,
        "currentTotalLimitAmount": 0,
        "currentTotalCount": 0,
        "sort": 412,
        "remark": "",
        "lastClearTime": 1778178600000,
        "creator": "admin",
        "createTime": 3,
        "lastUpdateMan": "admin",
        "lastUpdateTime": 1
      },
      {
        "id": 130744,
        "tenantId": 2001,
        "channelId": 0,
        "customName": "PPP549",
        "bankName": "",
        "bankCode": "",
        "state": 0,
        "isClosedBySystem": false,
        "weight": 0,
        "rechargeLevel": "",
        "accountNo": "ZnUD6Gj42BqNpw70ZKQbOaR3yfw70QDXem",
        "holderName": "",
        "subBranchName": "",
        "ifsccode": "",
        "qrCodeURL": "https://sitossimg.uknm5qqzv3vqzdn9xgn5.com/lotto/210003/2001/other/095425689-100-file_20260404095425586.webp",
        "minRechargeAmount": 0,
        "maxRechargeAmount": 0,
        "totalLimitAmount": 0,
        "totalLimitCount": 0,
        "currentTotalLimitAmount": 0,
        "currentTotalCount": 0,
        "sort": 411,
        "remark": "",
        "lastClearTime": 1778178600000,
        "creator": "admin",
        "createTime": 3,
        "lastUpdateMan": "admin",
        "lastUpdateTime": 1
      },
      {
        "id": 130743,
        "tenantId": 2001,
        "channelId": 0,
        "customName": "PPP548",
        "bankName": "",
        "bankCode": "",
        "state": 0,
        "isClosedBySystem": false,
        "weight": 0,
        "rechargeLevel": "",
        "accountNo": "2GRnEbgtRxuJXKfILiMAaaIwgEDephdm71",
        "holderName": "",
        "subBranchName": "",
        "ifsccode": "",
        "qrCodeURL": "https://sitossimg.uknm5qqzv3vqzdn9xgn5.com/lotto/210003/2001/other/095425689-100-file_20260404095425586.webp",
        "minRechargeAmount": 0,
        "maxRechargeAmount": 0,
        "totalLimitAmount": 0,
        "totalLimitCount": 0,
        "currentTotalLimitAmount": 0,
        "currentTotalCount": 0,
        "sort": 410,
        "remark": "",
        "lastClearTime": 1778178600000,
        "creator": "admin",
        "createTime": 3,
        "lastUpdateMan": "admin",
        "lastUpdateTime": 1
      },
      {
        "id": 130742,
        "tenantId": 2001,
        "channelId": 0,
        "customName": "!@#$%^&*",
        "bankName": "",
        "bankCode": "",
        "state": 0,
        "isClosedBySystem": false,
        "weight": 0,
        "rechargeLevel": "",
        "accountNo": "Vy2KtbdPRrUh6uz17MCo4Ypd6Or3OU6u6r",
        "holderName": "",
        "subBranchName": "",
        "ifsccode": "",
        "qrCodeURL": "https://sitossimg.uknm5qqzv3vqzdn9xgn5.com/lotto/210003/2001/other/095425689-100-file_20260404095425586.webp",
        "minRechargeAmount": 0,
        "maxRechargeAmount": 0,
        "totalLimitAmount": 0,
        "totalLimitCount": 0,
        "currentTotalLimitAmount": 0,
        "currentTotalCount": 0,
        "sort": 409,
        "remark": "",
        "lastClearTime": 1778178600000,
        "creator": "admin",
        "createTime": 3,
        "lastUpdateMan": "admin",
        "lastUpdateTime": 1
      },
      {
        "id": 130741,
        "tenantId": 2001,
        "channelId": 0,
        "customName": "PPP546",
        "bankName": "",
        "bankCode": "",
        "state": 0,
        "isClosedBySystem": false,
        "weight": 0,
        "rechargeLevel": "",
        "accountNo": "mGKTEZUycCmENQK8vB1dVP1KD3f45rW523",
        "holderName": "",
        "subBranchName": "",
        "ifsccode": "",
        "qrCodeURL": "https://sitossimg.uknm5qqzv3vqzdn9xgn5.com/lotto/210003/2001/other/095425689-100-file_20260404095425586.webp",
        "minRechargeAmount": 0,
        "maxRechargeAmount": 0,
        "totalLimitAmount": 0,
        "totalLimitCount": 0,
        "currentTotalLimitAmount": 0,
        "currentTotalCount": 0,
        "sort": 408,
        "remark": "",
        "lastClearTime": 1778178600000,
        "creator": "admin",
        "createTime": 3,
        "lastUpdateMan": "admin",
        "lastUpdateTime": 1
      },
      {
        "id": 130740,
        "tenantId": 2001,
        "channelId": 0,
        "customName": "PPP545",
        "bankName": "",
        "bankCode": "",
        "state": 0,
        "isClosedBySystem": false,
        "weight": 0,
        "rechargeLevel": "",
        "accountNo": "hNuyOWDnkZJeKUzQZ8K2BS2PkHChLxwnA1",
        "holderName": "",
        "subBranchName": "",
        "ifsccode": "",
        "qrCodeURL": "https://sitossimg.uknm5qqzv3vqzdn9xgn5.com/lotto/210003/2001/other/095425689-100-file_20260404095425586.webp",
        "minRechargeAmount": 0,
        "maxRechargeAmount": 0,
        "totalLimitAmount": 0,
        "totalLimitCount": 0,
        "currentTotalLimitAmount": 0,
        "currentTotalCount": 0,
        "sort": 407,
        "remark": "",
        "lastClearTime": 1778178600000,
        "creator": "admin",
        "createTime": 3,
        "lastUpdateMan": "admin",
        "lastUpdateTime": 1
      },
      {
        "id": 130739,
        "tenantId": 2001,
        "channelId": 0,
        "customName": "PPP544",
        "bankName": "",
        "bankCode": "",
        "state": 0,
        "isClosedBySystem": false,
        "weight": 0,
        "rechargeLevel": "",
        "accountNo": "IPcmrLLDS3k8TgFqSz4VAZJ0asu2xyztaR",
        "holderName": "",
        "subBranchName": "",
        "ifsccode": "",
        "qrCodeURL": "https://sitossimg.uknm5qqzv3vqzdn9xgn5.com/lotto/210003/2001/other/095425689-100-file_20260404095425586.webp",
        "minRechargeAmount": 0,
        "maxRechargeAmount": 0,
        "totalLimitAmount": 0,
        "totalLimitCount": 0,
        "currentTotalLimitAmount": 0,
        "currentTotalCount": 0,
        "sort": 406,
        "remark": "",
        "lastClearTime": 1778178600000,
        "creator": "admin",
        "createTime": 3,
        "lastUpdateMan": "admin",
        "lastUpdateTime": 1
      },
      {
        "id": 130738,
        "tenantId": 2001,
        "channelId": 0,
        "customName": "PPP543",
        "bankName": "",
        "bankCode": "",
        "state": 0,
        "isClosedBySystem": false,
        "weight": 0,
        "rechargeLevel": "",
        "accountNo": "0Z7cznf8AKftWlWVmulFojZ75NH7MxRCun",
        "holderName": "",
        "subBranchName": "",
        "ifsccode": "",
        "qrCodeURL": "https://sitossimg.uknm5qqzv3vqzdn9xgn5.com/lotto/210003/2001/other/095425689-100-file_20260404095425586.webp",
        "minRechargeAmount": 0,
        "maxRechargeAmount": 0,
        "totalLimitAmount": 0,
        "totalLimitCount": 0,
        "currentTotalLimitAmount": 0,
        "currentTotalCount": 0,
        "sort": 405,
        "remark": "",
        "lastClearTime": 1778178600000,
        "creator": "admin",
        "createTime": 3,
        "lastUpdateMan": "admin",
        "lastUpdateTime": 1
      },
      {
        "id": 130737,
        "tenantId": 2001,
        "channelId": 0,
        "customName": "PPP542",
        "bankName": "",
        "bankCode": "",
        "state": 0,
        "isClosedBySystem": false,
        "weight": 0,
        "rechargeLevel": "",
        "accountNo": "BBUUbMEAnLe7jm5qi6v8njd0n26S7Wanu4",
        "holderName": "",
        "subBranchName": "",
        "ifsccode": "",
        "qrCodeURL": "https://sitossimg.uknm5qqzv3vqzdn9xgn5.com/lotto/210003/2001/other/095425689-100-file_20260404095425586.webp",
        "minRechargeAmount": 0,
        "maxRechargeAmount": 0,
        "totalLimitAmount": 0,
        "totalLimitCount": 0,
        "currentTotalLimitAmount": 0,
        "currentTotalCount": 0,
        "sort": 404,
        "remark": "",
        "lastClearTime": 1778178600000,
        "creator": "admin",
        "createTime": 3,
        "lastUpdateMan": "admin",
        "lastUpdateTime": 1
      },
      {
        "id": 130736,
        "tenantId": 2001,
        "channelId": 0,
        "customName": "PPP541",
        "bankName": "",
        "bankCode": "",
        "state": 0,
        "isClosedBySystem": false,
        "weight": 0,
        "rechargeLevel": "",
        "accountNo": "eTNdFFGvEyNHekq9DviJIliUkneZaMzc0n",
        "holderName": "",
        "subBranchName": "",
        "ifsccode": "",
        "qrCodeURL": "https://sitossimg.uknm5qqzv3vqzdn9xgn5.com/lotto/210003/2001/other/095425689-100-file_20260404095425586.webp",
        "minRechargeAmount": 0,
        "maxRechargeAmount": 0,
        "totalLimitAmount": 0,
        "totalLimitCount": 0,
        "currentTotalLimitAmount": 0,
        "currentTotalCount": 0,
        "sort": 403,
        "remark": "",
        "lastClearTime": 1778178600000,
        "creator": "admin",
        "createTime": 3,
        "lastUpdateMan": "admin",
        "lastUpdateTime": 1
      },
      {
        "id": 130735,
        "tenantId": 2001,
        "channelId": 0,
        "customName": "PPP540",
        "bankName": "",
        "bankCode": "",
        "state": 0,
        "isClosedBySystem": false,
        "weight": 0,
        "rechargeLevel": "",
        "accountNo": "xgjYf0MKK0qItnJiMuRNwBw1HcsY6WOhxC",
        "holderName": "",
        "subBranchName": "",
        "ifsccode": "",
        "qrCodeURL": "https://sitossimg.uknm5qqzv3vqzdn9xgn5.com/lotto/210003/2001/other/095425689-100-file_20260404095425586.webp",
        "minRechargeAmount": 0,
        "maxRechargeAmount": 0,
        "totalLimitAmount": 0,
        "totalLimitCount": 0,
        "currentTotalLimitAmount": 0,
        "currentTotalCount": 0,
        "sort": 402,
        "remark": "",
        "lastClearTime": 1778178600000,
        "creator": "admin",
        "createTime": 3,
        "lastUpdateMan": "admin",
        "lastUpdateTime": 1
      },
      {
        "id": 130734,
        "tenantId": 2001,
        "channelId": 0,
        "customName": "PPP539",
        "bankName": "",
        "bankCode": "",
        "state": 0,
        "isClosedBySystem": false,
        "weight": 0,
        "rechargeLevel": "",
        "accountNo": "GvtzRjVh6BcGo9MODqJTWom4cBDkNxbYEe",
        "holderName": "",
        "subBranchName": "",
        "ifsccode": "",
        "qrCodeURL": "https://sitossimg.uknm5qqzv3vqzdn9xgn5.com/lotto/210003/2001/other/095425689-100-file_20260404095425586.webp",
        "minRechargeAmount": 0,
        "maxRechargeAmount": 0,
        "totalLimitAmount": 0,
        "totalLimitCount": 0,
        "currentTotalLimitAmount": 0,
        "currentTotalCount": 0,
        "sort": 401,
        "remark": "",
        "lastClearTime": 1778178600000,
        "creator": "admin",
        "createTime": 3,
        "lastUpdateMan": "admin",
        "lastUpdateTime": 1
      },
      {
        "id": 130733,
        "tenantId": 2001,
        "channelId": 0,
        "customName": "PPP538",
        "bankName": "",
        "bankCode": "",
        "state": 0,
        "isClosedBySystem": false,
        "weight": 0,
        "rechargeLevel": "",
        "accountNo": "o6bBB3tkXKsFabCkcbkl3ju3MxpnKppsVa",
        "holderName": "",
        "subBranchName": "",
        "ifsccode": "",
        "qrCodeURL": "https://sitossimg.uknm5qqzv3vqzdn9xgn5.com/lotto/210003/2001/other/095425689-100-file_20260404095425586.webp",
        "minRechargeAmount": 0,
        "maxRechargeAmount": 0,
        "totalLimitAmount": 0,
        "totalLimitCount": 0,
        "currentTotalLimitAmount": 0,
        "currentTotalCount": 0,
        "sort": 400,
        "remark": "",
        "lastClearTime": 1778178600000,
        "creator": "admin",
        "createTime": 3,
        "lastUpdateMan": "admin",
        "lastUpdateTime": 1
      },
      {
        "id": 130732,
        "tenantId": 2001,
        "channelId": 0,
        "customName": "PPP537",
        "bankName": "",
        "bankCode": "",
        "state": 0,
        "isClosedBySystem": false,
        "weight": 0,
        "rechargeLevel": "",
        "accountNo": "EfumjXPk67C2nwIQoXoLuzcqw1VNSfAGZI",
        "holderName": "",
        "subBranchName": "",
        "ifsccode": "",
        "qrCodeURL": "https://sitossimg.uknm5qqzv3vqzdn9xgn5.com/lotto/210003/2001/other/095425689-100-file_20260404095425586.webp",
        "minRechargeAmount": 0,
        "maxRechargeAmount": 0,
        "totalLimitAmount": 0,
        "totalLimitCount": 0,
        "currentTotalLimitAmount": 0,
        "currentTotalCount": 0,
        "sort": 399,
        "remark": "",
        "lastClearTime": 1778178600000,
        "creator": "admin",
        "createTime": 3,
        "lastUpdateMan": "admin",
        "lastUpdateTime": 1
      },
      {
        "id": 130731,
        "tenantId": 2001,
        "channelId": 0,
        "customName": "PPP536",
        "bankName": "",
        "bankCode": "",
        "state": 0,
        "isClosedBySystem": false,
        "weight": 0,
        "rechargeLevel": "",
        "accountNo": "CXUOGL5fd6ZZKtBkvtUfvxEZZ6EHgPtzg7",
        "holderName": "",
        "subBranchName": "",
        "ifsccode": "",
        "qrCodeURL": "https://sitossimg.uknm5qqzv3vqzdn9xgn5.com/lotto/210003/2001/other/095425689-100-file_20260404095425586.webp",
        "minRechargeAmount": 0,
        "maxRechargeAmount": 0,
        "totalLimitAmount": 0,
        "totalLimitCount": 0,
        "currentTotalLimitAmount": 0,
        "currentTotalCount": 0,
        "sort": 398,
        "remark": "",
        "lastClearTime": 1778178600000,
        "creator": "admin",
        "createTime": 3,
        "lastUpdateMan": "admin",
        "lastUpdateTime": 1
      },
      {
        "id": 130730,
        "tenantId": 2001,
        "channelId": 0,
        "customName": "PPP535",
        "bankName": "",
        "bankCode": "",
        "state": 0,
        "isClosedBySystem": false,
        "weight": 0,
        "rechargeLevel": "",
        "accountNo": "v16yWdqpH3CIVZYq2VSmLhFQiFMrQZO3WR",
        "holderName": "",
        "subBranchName": "",
        "ifsccode": "",
        "qrCodeURL": "https://sitossimg.uknm5qqzv3vqzdn9xgn5.com/lotto/210003/2001/other/095425689-100-file_20260404095425586.webp",
        "minRechargeAmount": 0,
        "maxRechargeAmount": 0,
        "totalLimitAmount": 0,
        "totalLimitCount": 0,
        "currentTotalLimitAmount": 0,
        "currentTotalCount": 0,
        "sort": 397,
        "remark": "",
        "lastClearTime": 1778178600000,
        "creator": "admin",
        "createTime": 3,
        "lastUpdateMan": "admin",
        "lastUpdateTime": 1
      }
    ],
    "pageNo": 1,
    "totalPage": 11,
    "totalCount": 207
  },
  "code": 0,
  "msg": "成功",
  "msgCode": 0
}