{
  "data": {
    "list": [
      {
        "primaryKey": "019e0779f56c7780af396fd360686aeb",
        "tenantId": 0,
        "operatorSysUserId": 130009,
        "operatorName": "sys_milo",
        "targetUserId": 0,
        "operationObjectType": 1,
        "subOperationObjectType": "",
        "operationObjectPrimaryKey": "",
        "menuRoute": "login:login",
        "userIp": "8.211.42.128",
        "logInfo": "[登录系统]-sys_milo",
        "createTime": 1778241893740,
        "logState": 1,
        "changedTablesLogJson": "{\"sys_users\":[[{\"n\":\"UserId\",\"d\":\"用户Id\",\"orv\":\"130009\",\"nrv\":\"130009\"},{\"n\":\"UserLoginTimes\",\"d\":\"登录次数\",\"orv\":\"51\",\"nrv\":\"52\"},{\"n\":\"UserLoginDate\",\"d\":\"登录时间\",\"orv\":\"1778236810771\",\"nrv\":\"1778241893680\"},{\"n\":\"LastUpdateTime\",\"d\":\"上次修改时间\",\"orv\":\"1778236810772\",\"nrv\":\"1778241893681\"}]]}"
      },
      {
        "primaryKey": "019e072c6643714bad38f1852573ef73",
        "tenantId": 0,
        "operatorSysUserId": 130009,
        "operatorName": "sys_milo",
        "targetUserId": 0,
        "operationObjectType": 1,
        "subOperationObjectType": "",
        "operationObjectPrimaryKey": "",
        "menuRoute": "login:login",
        "userIp": "8.211.42.128",
        "logInfo": "[登录系统]-sys_milo",
        "createTime": 1778236810819,
        "logState": 1,
        "changedTablesLogJson": "{\"sys_users\":[[{\"n\":\"UserId\",\"d\":\"用户Id\",\"orv\":\"130009\",\"nrv\":\"130009\"},{\"n\":\"UserLoginTimes\",\"d\":\"登录次数\",\"orv\":\"50\",\"nrv\":\"51\"},{\"n\":\"UserLoginDate\",\"d\":\"登录时间\",\"orv\":\"1778236774411\",\"nrv\":\"1778236810771\"},{\"n\":\"LastUpdateTime\",\"d\":\"上次修改时间\",\"orv\":\"1778236774412\",\"nrv\":\"1778236810772\"}]]}"
      },
      {
        "primaryKey": "019e072bd83d7137a76bd396c90708a9",
        "tenantId": 0,
        "operatorSysUserId": 130009,
        "operatorName": "sys_milo",
        "targetUserId": 0,
        "operationObjectType": 1,
        "subOperationObjectType": "",
        "operationObjectPrimaryKey": "",
        "menuRoute": "login:login",
        "userIp": "8.211.42.128",
        "logInfo": "[登录系统]-sys_milo",
        "createTime": 1778236774461,
        "logState": 1,
        "changedTablesLogJson": "{\"sys_users\":[[{\"n\":\"UserId\",\"d\":\"用户Id\",\"orv\":\"130009\",\"nrv\":\"130009\"},{\"n\":\"UserLoginTimes\",\"d\":\"登录次数\",\"orv\":\"49\",\"nrv\":\"50\"},{\"n\":\"UserLoginDate\",\"d\":\"登录时间\",\"orv\":\"1778236658228\",\"nrv\":\"1778236774411\"},{\"n\":\"LastUpdateTime\",\"d\":\"上次修改时间\",\"orv\":\"1778236658229\",\"nrv\":\"1778236774412\"}]]}"
      },
      {
        "primaryKey": "019e072a1269751e98d6dc6928be5de2",
        "tenantId": 0,
        "operatorSysUserId": 130009,
        "operatorName": "sys_milo",
        "targetUserId": 0,
        "operationObjectType": 1,
        "subOperationObjectType": "",
        "operationObjectPrimaryKey": "",
        "menuRoute": "login:login",
        "userIp": "8.211.42.128",
        "logInfo": "[登录系统]-sys_milo",
        "createTime": 1778236658281,
        "logState": 1,
        "changedTablesLogJson": "{\"sys_users\":[[{\"n\":\"UserId\",\"d\":\"用户Id\",\"orv\":\"130009\",\"nrv\":\"130009\"},{\"n\":\"UserLoginTimes\",\"d\":\"登录次数\",\"orv\":\"48\",\"nrv\":\"49\"},{\"n\":\"UserLoginDate\",\"d\":\"登录时间\",\"orv\":\"1778236484673\",\"nrv\":\"1778236658228\"},{\"n\":\"LastUpdateTime\",\"d\":\"上次修改时间\",\"orv\":\"1778236484673\",\"nrv\":\"1778236658229\"}]]}"
      },
      {
        "primaryKey": "019e07276c717652ba1666935d578fad",
        "tenantId": 0,
        "operatorSysUserId": 130009,
        "operatorName": "sys_milo",
        "targetUserId": 0,
        "operationObjectType": 1,
        "subOperationObjectType": "",
        "operationObjectPrimaryKey": "",
        "menuRoute": "login:login",
        "userIp": "8.211.42.128",
        "logInfo": "[登录系统]-sys_milo",
        "createTime": 1778236484721,
        "logState": 1,
        "changedTablesLogJson": "{\"sys_users\":[[{\"n\":\"UserId\",\"d\":\"用户Id\",\"orv\":\"130009\",\"nrv\":\"130009\"},{\"n\":\"UserLoginTimes\",\"d\":\"登录次数\",\"orv\":\"47\",\"nrv\":\"48\"},{\"n\":\"UserLoginDate\",\"d\":\"登录时间\",\"orv\":\"1778236346834\",\"nrv\":\"1778236484673\"},{\"n\":\"LastUpdateTime\",\"d\":\"上次修改时间\",\"orv\":\"1778236346835\",\"nrv\":\"1778236484673\"}]]}"
      },
      {
        "primaryKey": "019e0725521977e6a303f8f47d706fa4",
        "tenantId": 0,
        "operatorSysUserId": 130009,
        "operatorName": "sys_milo",
        "targetUserId": 0,
        "operationObjectType": 1,
        "subOperationObjectType": "",
        "operationObjectPrimaryKey": "",
        "menuRoute": "login:login",
        "userIp": "8.211.42.128",
        "logInfo": "[登录系统]-sys_milo",
        "createTime": 1778236346905,
        "logState": 1,
        "changedTablesLogJson": "{\"sys_users\":[[{\"n\":\"UserId\",\"d\":\"用户Id\",\"orv\":\"130009\",\"nrv\":\"130009\"},{\"n\":\"UserLoginTimes\",\"d\":\"登录次数\",\"orv\":\"46\",\"nrv\":\"47\"},{\"n\":\"UserLoginDate\",\"d\":\"登录时间\",\"orv\":\"1778236227519\",\"nrv\":\"1778236346834\"},{\"n\":\"LastUpdateTime\",\"d\":\"上次修改时间\",\"orv\":\"1778236227519\",\"nrv\":\"1778236346835\"}]]}"
      },
      {
        "primaryKey": "019e072380007240bfa8385724a93b24",
        "tenantId": 0,
        "operatorSysUserId": 130009,
        "operatorName": "sys_milo",
        "targetUserId": 0,
        "operationObjectType": 1,
        "subOperationObjectType": "",
        "operationObjectPrimaryKey": "",
        "menuRoute": "login:login",
        "userIp": "8.211.42.128",
        "logInfo": "[登录系统]-sys_milo",
        "createTime": 1778236227584,
        "logState": 1,
        "changedTablesLogJson": "{\"sys_users\":[[{\"n\":\"UserId\",\"d\":\"用户Id\",\"orv\":\"130009\",\"nrv\":\"130009\"},{\"n\":\"UserLoginTimes\",\"d\":\"登录次数\",\"orv\":\"45\",\"nrv\":\"46\"},{\"n\":\"UserLoginDate\",\"d\":\"登录时间\",\"orv\":\"1778235951336\",\"nrv\":\"1778236227519\"},{\"n\":\"LastUpdateTime\",\"d\":\"上次修改时间\",\"orv\":\"1778235951336\",\"nrv\":\"1778236227519\"}]]}"
      },
      {
        "primaryKey": "019e071f4917763cb560424dfdf9aa98",
        "tenantId": 0,
        "operatorSysUserId": 130009,
        "operatorName": "sys_milo",
        "targetUserId": 0,
        "operationObjectType": 1,
        "subOperationObjectType": "",
        "operationObjectPrimaryKey": "",
        "menuRoute": "login:login",
        "userIp": "8.211.42.128",
        "logInfo": "[登录系统]-sys_milo",
        "createTime": 1778235951383,
        "logState": 1,
        "changedTablesLogJson": "{\"sys_users\":[[{\"n\":\"UserId\",\"d\":\"用户Id\",\"orv\":\"130009\",\"nrv\":\"130009\"},{\"n\":\"UserLoginTimes\",\"d\":\"登录次数\",\"orv\":\"44\",\"nrv\":\"45\"},{\"n\":\"UserLoginDate\",\"d\":\"登录时间\",\"orv\":\"1778233985778\",\"nrv\":\"1778235951336\"},{\"n\":\"LastUpdateTime\",\"d\":\"上次修改时间\",\"orv\":\"1778233985779\",\"nrv\":\"1778235951336\"}]]}"
      },
      {
        "primaryKey": "019e07014b2271f2a1b9145a4ad105a2",
        "tenantId": 0,
        "operatorSysUserId": 130009,
        "operatorName": "sys_milo",
        "targetUserId": 0,
        "operationObjectType": 1,
        "subOperationObjectType": "",
        "operationObjectPrimaryKey": "",
        "menuRoute": "login:login",
        "userIp": "8.211.42.128",
        "logInfo": "[登录系统]-sys_milo",
        "createTime": 1778233985826,
        "logState": 1,
        "changedTablesLogJson": "{\"sys_users\":[[{\"n\":\"UserId\",\"d\":\"用户Id\",\"orv\":\"130009\",\"nrv\":\"130009\"},{\"n\":\"UserLoginTimes\",\"d\":\"登录次数\",\"orv\":\"43\",\"nrv\":\"44\"},{\"n\":\"UserLoginDate\",\"d\":\"登录时间\",\"orv\":\"1778233981116\",\"nrv\":\"1778233985778\"},{\"n\":\"LastUpdateTime\",\"d\":\"上次修改时间\",\"orv\":\"1778233981116\",\"nrv\":\"1778233985779\"}]]}"
      },
      {
        "primaryKey": "019e070138ec7174b83493ca9e3b7388",
        "tenantId": 0,
        "operatorSysUserId": 130009,
        "operatorName": "sys_milo",
        "targetUserId": 0,
        "operationObjectType": 1,
        "subOperationObjectType": "",
        "operationObjectPrimaryKey": "",
        "menuRoute": "login:login",
        "userIp": "8.211.42.128",
        "logInfo": "[登录系统]-sys_milo",
        "createTime": 1778233981164,
        "logState": 1,
        "changedTablesLogJson": "{\"sys_users\":[[{\"n\":\"UserId\",\"d\":\"用户Id\",\"orv\":\"130009\",\"nrv\":\"130009\"},{\"n\":\"UserLoginTimes\",\"d\":\"登录次数\",\"orv\":\"42\",\"nrv\":\"43\"},{\"n\":\"UserLoginDate\",\"d\":\"登录时间\",\"orv\":\"1778063494493\",\"nrv\":\"1778233981116\"},{\"n\":\"LastUpdateTime\",\"d\":\"上次修改时间\",\"orv\":\"1778063494493\",\"nrv\":\"1778233981116\"}]]}"
      },
      {
        "primaryKey": "019dfcd7cd8771c9930d93436a834499",
        "tenantId": 0,
        "operatorSysUserId": 130009,
        "operatorName": "sys_milo",
        "targetUserId": 0,
        "operationObjectType": 1,
        "subOperationObjectType": "",
        "operationObjectPrimaryKey": "",
        "menuRoute": "login:login",
        "userIp": "8.211.42.128",
        "logInfo": "[登录系统]-sys_milo",
        "createTime": 1778063494535,
        "logState": 1,
        "changedTablesLogJson": "{\"sys_users\":[[{\"n\":\"UserId\",\"d\":\"用户Id\",\"orv\":\"130009\",\"nrv\":\"130009\"},{\"n\":\"UserLoginTimes\",\"d\":\"登录次数\",\"orv\":\"41\",\"nrv\":\"42\"},{\"n\":\"UserLoginDate\",\"d\":\"登录时间\",\"orv\":\"1778045804006\",\"nrv\":\"1778063494493\"},{\"n\":\"LastUpdateTime\",\"d\":\"上次修改时间\",\"orv\":\"1778045804006\",\"nrv\":\"1778063494493\"}]]}"
      },
      {
        "primaryKey": "019dfbc9de1c7549ab17d2e1c559d3dc",
        "tenantId": 0,
        "operatorSysUserId": 130009,
        "operatorName": "sys_milo",
        "targetUserId": 0,
        "operationObjectType": 1,
        "subOperationObjectType": "",
        "operationObjectPrimaryKey": "",
        "menuRoute": "login:login",
        "userIp": "8.211.42.128",
        "logInfo": "[登录系统]-sys_milo",
        "createTime": 1778045804060,
        "logState": 1,
        "changedTablesLogJson": "{\"sys_users\":[[{\"n\":\"UserId\",\"d\":\"用户Id\",\"orv\":\"130009\",\"nrv\":\"130009\"},{\"n\":\"UserLoginTimes\",\"d\":\"登录次数\",\"orv\":\"40\",\"nrv\":\"41\"},{\"n\":\"UserLoginDate\",\"d\":\"登录时间\",\"orv\":\"1777983840891\",\"nrv\":\"1778045804006\"},{\"n\":\"LastUpdateTime\",\"d\":\"上次修改时间\",\"orv\":\"1777983840891\",\"nrv\":\"1778045804006\"}]]}"
      },
      {
        "primaryKey": "019df81862ac763dbd0f7a113c56725f",
        "tenantId": 0,
        "operatorSysUserId": 130009,
        "operatorName": "sys_milo",
        "targetUserId": 0,
        "operationObjectType": 1,
        "subOperationObjectType": "",
        "operationObjectPrimaryKey": "",
        "menuRoute": "login:login",
        "userIp": "8.211.42.128",
        "logInfo": "[登录系统]-sys_milo",
        "createTime": 1777983840940,
        "logState": 1,
        "changedTablesLogJson": "{\"sys_users\":[[{\"n\":\"UserId\",\"d\":\"用户Id\",\"orv\":\"130009\",\"nrv\":\"130009\"},{\"n\":\"IsOnLine\",\"d\":\"是否在线\",\"orv\":\"0\",\"nrv\":\"1\"},{\"n\":\"UserLoginTimes\",\"d\":\"登录次数\",\"orv\":\"39\",\"nrv\":\"40\"},{\"n\":\"UserLoginDate\",\"d\":\"登录时间\",\"orv\":\"1777961336719\",\"nrv\":\"1777983840891\"},{\"n\":\"LastUpdateTime\",\"d\":\"上次修改时间\",\"orv\":\"1777961357701\",\"nrv\":\"1777983840891\"}]]}"
      },
      {
        "primaryKey": "019df6c0ffbf7095920ae29439ff222d",
        "tenantId": 0,
        "operatorSysUserId": 130009,
        "operatorName": "sys_milo",
        "targetUserId": 0,
        "operationObjectType": 1,
        "subOperationObjectType": "",
        "operationObjectPrimaryKey": "",
        "menuRoute": "login:login",
        "userIp": "8.211.42.128",
        "logInfo": "[登录系统]-sys_milo",
        "createTime": 1777961336767,
        "logState": 1,
        "changedTablesLogJson": "{\"sys_users\":[[{\"n\":\"UserId\",\"d\":\"用户Id\",\"orv\":\"130009\",\"nrv\":\"130009\"},{\"n\":\"IsOnLine\",\"d\":\"是否在线\",\"orv\":\"0\",\"nrv\":\"1\"},{\"n\":\"UserLoginTimes\",\"d\":\"登录次数\",\"orv\":\"38\",\"nrv\":\"39\"},{\"n\":\"UserLoginDate\",\"d\":\"登录时间\",\"orv\":\"1777961209169\",\"nrv\":\"1777961336719\"},{\"n\":\"LastUpdateTime\",\"d\":\"上次修改时间\",\"orv\":\"1777961291829\",\"nrv\":\"1777961336720\"}]]}"
      },
      {
        "primaryKey": "019df6bf0dea700891f7b045b20bd5c4",
        "tenantId": 0,
        "operatorSysUserId": 130009,
        "operatorName": "sys_milo",
        "targetUserId": 0,
        "operationObjectType": 1,
        "subOperationObjectType": "",
        "operationObjectPrimaryKey": "",
        "menuRoute": "login:login",
        "userIp": "8.211.42.128",
        "logInfo": "[登录系统]-sys_milo",
        "createTime": 1777961209322,
        "logState": 1,
        "changedTablesLogJson": "{\"sys_users\":[[{\"n\":\"UserId\",\"d\":\"用户Id\",\"orv\":\"130009\",\"nrv\":\"130009\"},{\"n\":\"UserLoginTimes\",\"d\":\"登录次数\",\"orv\":\"37\",\"nrv\":\"38\"},{\"n\":\"UserLoginDate\",\"d\":\"登录时间\",\"orv\":\"1777879101488\",\"nrv\":\"1777961209169\"},{\"n\":\"LastUpdateTime\",\"d\":\"上次修改时间\",\"orv\":\"1777879101493\",\"nrv\":\"1777961209174\"}]]}"
      },
      {
        "primaryKey": "019df2ab2e6f7392a229a97012a9c545",
        "tenantId": 0,
        "operatorSysUserId": 130009,
        "operatorName": "sys_milo",
        "targetUserId": 0,
        "operationObjectType": 0,
        "subOperationObjectType": "",
        "operationObjectPrimaryKey": "",
        "menuRoute": "SystemManage:SysMenu:MenuPage:Submit",
        "userIp": "8.211.42.128",
        "logInfo": "[新增/编辑]",
        "createTime": 1777892798063,
        "logState": 1,
        "changedTablesLogJson": "{\"sys_menu\":[[{\"n\":\"Id\",\"d\":\"主键\",\"orv\":\"100002\",\"nrv\":\"100002\"},{\"n\":\"Name\",\"d\":\"菜单名称\",\"orv\":\"会员列表1\",\"nrv\":\"会员列表\"},{\"n\":\"LastUpdateTime\",\"d\":\"上次修改时间\",\"orv\":\"1777892764028\",\"nrv\":\"1777892797980\"}]]}"
      },
      {
        "primaryKey": "019df2aaa9b971b58cf6ebd8668396e9",
        "tenantId": 0,
        "operatorSysUserId": 130009,
        "operatorName": "sys_milo",
        "targetUserId": 0,
        "operationObjectType": 0,
        "subOperationObjectType": "",
        "operationObjectPrimaryKey": "",
        "menuRoute": "SystemManage:SysMenu:MenuPage:Submit",
        "userIp": "8.211.42.128",
        "logInfo": "[新增/编辑]",
        "createTime": 1777892764089,
        "logState": 1,
        "changedTablesLogJson": "{\"sys_menu\":[[{\"n\":\"Id\",\"d\":\"主键\",\"orv\":\"100002\",\"nrv\":\"100002\"},{\"n\":\"Name\",\"d\":\"菜单名称\",\"orv\":\"会员列表\",\"nrv\":\"会员列表1\"},{\"n\":\"LastUpdateMan\",\"d\":\"上次修改人\",\"orv\":\"sysadmin\",\"nrv\":\"sys_milo\"},{\"n\":\"LastUpdateTime\",\"d\":\"上次修改时间\",\"orv\":\"1774548824738\",\"nrv\":\"1777892764028\"}]]}"
      },
      {
        "primaryKey": "019df1da6b31713ab871bb915606d128",
        "tenantId": 0,
        "operatorSysUserId": 130009,
        "operatorName": "sys_milo",
        "targetUserId": 0,
        "operationObjectType": 0,
        "subOperationObjectType": "",
        "operationObjectPrimaryKey": "",
        "menuRoute": "schedulertask:runnow",
        "userIp": "8.211.42.128",
        "logInfo": "[执行任务]",
        "createTime": 1777879116593,
        "logState": 1,
        "changedTablesLogJson": "{}"
      },
      {
        "primaryKey": "019df1da30e575a398cd128882f7f59b",
        "tenantId": 0,
        "operatorSysUserId": 130009,
        "operatorName": "sys_milo",
        "targetUserId": 0,
        "operationObjectType": 1,
        "subOperationObjectType": "",
        "operationObjectPrimaryKey": "",
        "menuRoute": "login:login",
        "userIp": "8.211.42.128",
        "logInfo": "[登录系统]-sys_milo",
        "createTime": 1777879101670,
        "logState": 1,
        "changedTablesLogJson": "{\"sys_users\":[[{\"n\":\"UserId\",\"d\":\"用户Id\",\"orv\":\"130009\",\"nrv\":\"130009\"},{\"n\":\"IsOnLine\",\"d\":\"是否在线\",\"orv\":\"0\",\"nrv\":\"1\"},{\"n\":\"UserLoginTimes\",\"d\":\"登录次数\",\"orv\":\"36\",\"nrv\":\"37\"},{\"n\":\"UserLoginDate\",\"d\":\"登录时间\",\"orv\":\"1777714872077\",\"nrv\":\"1777879101488\"},{\"n\":\"LastUpdateTime\",\"d\":\"上次修改时间\",\"orv\":\"1777714884863\",\"nrv\":\"1777879101493\"}]]}"
      },
      {
        "primaryKey": "019de8103f3676da9b84d6ee7280b341",
        "tenantId": 0,
        "operatorSysUserId": 130009,
        "operatorName": "sys_milo",
        "targetUserId": 0,
        "operationObjectType": 1,
        "subOperationObjectType": "",
        "operationObjectPrimaryKey": "",
        "menuRoute": "login:login",
        "userIp": "8.211.42.128",
        "logInfo": "[登录系统]-sys_milo",
        "createTime": 1777714872118,
        "logState": 1,
        "changedTablesLogJson": "{\"sys_users\":[[{\"n\":\"UserId\",\"d\":\"用户Id\",\"orv\":\"130009\",\"nrv\":\"130009\"},{\"n\":\"UserLoginTimes\",\"d\":\"登录次数\",\"orv\":\"35\",\"nrv\":\"36\"},{\"n\":\"UserLoginDate\",\"d\":\"登录时间\",\"orv\":\"1777703820171\",\"nrv\":\"1777714872077\"},{\"n\":\"LastUpdateTime\",\"d\":\"上次修改时间\",\"orv\":\"1777703820171\",\"nrv\":\"1777714872077\"}]]}"
      }
    ],
    "pageNo": 1,
    "totalPage": 7,
    "totalCount": 121
  },
  "code": 0,
  "msg": "成功",
  "msgCode": 0
}