{
  "data": {
    "list": [
      {
        "id": 484064,
        "tenantId": 2001,
        "channelCategoryId": 100000,
        "channelId": 12184,
        "thirdChannelCode": "1002",
        "sysCurrency": "INR",
        "customName": "RAP-002",
        "thirdPayMerchantId": 344014,
        "merchantCode": "5s1kjKKAAQRBjDrnFxGVEQ2oen0vhfXf",
        "merchantState": 1,
        "payCode": "RAPayINR",
        "state": 1,
        "channelState": 1,
        "weight": 0,
        "realTimeWeight": 0,
        "successRateInfo": "",
        "recent15MinutesCount": 0,
        "recent30MinutesCount": 0,
        "recent1HourCount": 0,
        "recent24HoursCount": 0,
        "todayProcessedCount": 0,
        "totalProcessedCount": 0,
        "allowStartTime": "00:00",
        "allowEndTime": "23:59",
        "minAmount": 10,
        "maxAmount": 1000000,
        "serviceFeeRate": 0,
        "autoCloseBalance": 0,
        "allowRechargeLevel": "",
        "boolAttr": 0,
        "isSupportUtrTest": true,
        "remark": "",
        "lastUpdateMan": "org_figo",
        "lastUpdateTime": 1778245194501
      },
      {
        "id": 484063,
        "tenantId": 2001,
        "channelCategoryId": 100000,
        "channelId": 12183,
        "thirdChannelCode": "1002",
        "sysCurrency": "INR",
        "customName": "RAP-001",
        "thirdPayMerchantId": 344014,
        "merchantCode": "5s1kjKKAAQRBjDrnFxGVEQ2oen0vhfXf",
        "merchantState": 1,
        "payCode": "RAPayINR",
        "state": 1,
        "channelState": 1,
        "weight": 0,
        "realTimeWeight": 0,
        "successRateInfo": "",
        "recent15MinutesCount": 0,
        "recent30MinutesCount": 0,
        "recent1HourCount": 0,
        "recent24HoursCount": 0,
        "todayProcessedCount": 0,
        "totalProcessedCount": 0,
        "allowStartTime": "00:00",
        "allowEndTime": "23:59",
        "minAmount": 10,
        "maxAmount": 100000,
        "serviceFeeRate": 0,
        "autoCloseBalance": 0,
        "allowRechargeLevel": "",
        "boolAttr": 0,
        "isSupportUtrTest": true,
        "remark": "",
        "lastUpdateMan": "org_figo",
        "lastUpdateTime": 1778245199803
      },
      {
        "id": 484062,
        "tenantId": 2001,
        "channelCategoryId": 100009,
        "channelId": 10965,
        "thirdChannelCode": "",
        "sysCurrency": "USDT",
        "customName": "122",
        "thirdPayMerchantId": 344011,
        "merchantCode": "1111",
        "merchantState": 1,
        "payCode": "AYPayUSDTCU",
        "state": 1,
        "channelState": 1,
        "weight": 2,
        "realTimeWeight": 0,
        "successRateInfo": "",
        "recent15MinutesCount": 0,
        "recent30MinutesCount": 0,
        "recent1HourCount": 0,
        "recent24HoursCount": 0,
        "todayProcessedCount": 0,
        "totalProcessedCount": 0,
        "allowStartTime": "00:00",
        "allowEndTime": "23:59",
        "minAmount": 0,
        "maxAmount": 0,
        "serviceFeeRate": 0,
        "autoCloseBalance": 0,
        "allowRechargeLevel": "LV3,LV4,LV5,LV6",
        "boolAttr": 0,
        "isSupportUtrTest": false,
        "remark": "121212",
        "lastUpdateMan": "sam002",
        "lastUpdateTime": 1778239394408
      },
      {
        "id": 484058,
        "tenantId": 2001,
        "channelCategoryId": 100000,
        "channelId": 12075,
        "thirdChannelCode": "",
        "sysCurrency": "INR",
        "customName": "sky-02",
        "thirdPayMerchantId": 344013,
        "merchantCode": "test-Movpay",
        "merchantState": 1,
        "payCode": "MovPayINR",
        "state": 0,
        "channelState": 1,
        "weight": 0,
        "realTimeWeight": 0,
        "successRateInfo": "",
        "recent15MinutesCount": 0,
        "recent30MinutesCount": 0,
        "recent1HourCount": 0,
        "recent24HoursCount": 0,
        "todayProcessedCount": 0,
        "totalProcessedCount": 0,
        "allowStartTime": "00:00",
        "allowEndTime": "23:59",
        "minAmount": 10,
        "maxAmount": 100000,
        "serviceFeeRate": 0,
        "autoCloseBalance": 0,
        "allowRechargeLevel": "",
        "boolAttr": 0,
        "isSupportUtrTest": true,
        "remark": "",
        "lastUpdateMan": "org_figo",
        "lastUpdateTime": 1778238977782
      },
      {
        "id": 484057,
        "tenantId": 2001,
        "channelCategoryId": 100000,
        "channelId": 12022,
        "thirdChannelCode": "",
        "sysCurrency": "INR",
        "customName": "sky-01",
        "thirdPayMerchantId": 344013,
        "merchantCode": "test-Movpay",
        "merchantState": 1,
        "payCode": "MovPayINR",
        "state": 0,
        "channelState": 1,
        "weight": 0,
        "realTimeWeight": 0,
        "successRateInfo": "",
        "recent15MinutesCount": 0,
        "recent30MinutesCount": 0,
        "recent1HourCount": 0,
        "recent24HoursCount": 0,
        "todayProcessedCount": 0,
        "totalProcessedCount": 0,
        "allowStartTime": "00:00",
        "allowEndTime": "23:59",
        "minAmount": 1,
        "maxAmount": 100000,
        "serviceFeeRate": 0,
        "autoCloseBalance": 0,
        "allowRechargeLevel": "",
        "boolAttr": 0,
        "isSupportUtrTest": true,
        "remark": "",
        "lastUpdateMan": "org_figo",
        "lastUpdateTime": 1778238974880
      },
      {
        "id": 484045,
        "tenantId": 2001,
        "channelCategoryId": 100000,
        "channelId": 10901,
        "thirdChannelCode": "1111",
        "sysCurrency": "INR",
        "customName": "111222",
        "thirdPayMerchantId": 344006,
        "merchantCode": "M1762771883",
        "merchantState": 1,
        "payCode": "YayaPayINR",
        "state": 0,
        "channelState": 1,
        "weight": 0,
        "realTimeWeight": 0,
        "successRateInfo": "",
        "recent15MinutesCount": 0,
        "recent30MinutesCount": 0,
        "recent1HourCount": 0,
        "recent24HoursCount": 0,
        "todayProcessedCount": 0,
        "totalProcessedCount": 0,
        "allowStartTime": "00:00",
        "allowEndTime": "23:59",
        "minAmount": 0,
        "maxAmount": 0,
        "serviceFeeRate": 0,
        "autoCloseBalance": 0,
        "allowRechargeLevel": "",
        "boolAttr": 0,
        "isSupportUtrTest": true,
        "remark": "",
        "lastUpdateMan": "org_figo",
        "lastUpdateTime": 1778238022235
      },
      {
        "id": 484040,
        "tenantId": 2001,
        "channelCategoryId": 100001,
        "channelId": 10697,
        "thirdChannelCode": "12",
        "sysCurrency": "INR",
        "customName": "萨姆测试",
        "thirdPayMerchantId": 340009,
        "merchantCode": "101",
        "merchantState": 1,
        "payCode": "UmoneyPayINR",
        "state": 1,
        "channelState": 1,
        "weight": 0,
        "realTimeWeight": 0,
        "successRateInfo": "",
        "recent15MinutesCount": 0,
        "recent30MinutesCount": 0,
        "recent1HourCount": 0,
        "recent24HoursCount": 0,
        "todayProcessedCount": 0,
        "totalProcessedCount": 0,
        "allowStartTime": "00:00",
        "allowEndTime": "23:59",
        "minAmount": 0,
        "maxAmount": 1,
        "serviceFeeRate": 0,
        "autoCloseBalance": 0,
        "allowRechargeLevel": "LV1,LV2",
        "boolAttr": 0,
        "isSupportUtrTest": true,
        "remark": "22222",
        "lastUpdateMan": "org_milo",
        "lastUpdateTime": 1777964642452
      },
      {
        "id": 484039,
        "tenantId": 2001,
        "channelCategoryId": 100001,
        "channelId": 10693,
        "thirdChannelCode": "萨姆-测试",
        "sysCurrency": "INR",
        "customName": "111",
        "thirdPayMerchantId": 340009,
        "merchantCode": "101",
        "merchantState": 1,
        "payCode": "UmoneyPayINR",
        "state": 1,
        "channelState": 1,
        "weight": 0,
        "realTimeWeight": 0,
        "successRateInfo": "",
        "recent15MinutesCount": 0,
        "recent30MinutesCount": 0,
        "recent1HourCount": 0,
        "recent24HoursCount": 0,
        "todayProcessedCount": 0,
        "totalProcessedCount": 0,
        "allowStartTime": "00:00",
        "allowEndTime": "23:59",
        "minAmount": 1,
        "maxAmount": 3,
        "serviceFeeRate": 0,
        "autoCloseBalance": 0,
        "allowRechargeLevel": "LV6,LV7",
        "boolAttr": 0,
        "isSupportUtrTest": true,
        "remark": "1212121212",
        "lastUpdateMan": "org_milo",
        "lastUpdateTime": 1777964573073
      },
      {
        "id": 484038,
        "tenantId": 2001,
        "channelCategoryId": 100009,
        "channelId": 10706,
        "thirdChannelCode": "",
        "sysCurrency": "USDT",
        "customName": "wrwerew",
        "thirdPayMerchantId": 344005,
        "merchantCode": "Test001",
        "merchantState": 1,
        "payCode": "TetherPayUSDTCU",
        "state": 1,
        "channelState": 1,
        "weight": 10,
        "realTimeWeight": 0,
        "successRateInfo": "",
        "recent15MinutesCount": 0,
        "recent30MinutesCount": 0,
        "recent1HourCount": 0,
        "recent24HoursCount": 0,
        "todayProcessedCount": 0,
        "totalProcessedCount": 0,
        "allowStartTime": "00:00",
        "allowEndTime": "23:59",
        "minAmount": 1,
        "maxAmount": 1000000,
        "serviceFeeRate": 0,
        "autoCloseBalance": 0,
        "allowRechargeLevel": "",
        "boolAttr": 0,
        "isSupportUtrTest": false,
        "remark": "",
        "lastUpdateMan": "org_milo",
        "lastUpdateTime": 1778050940716
      },
      {
        "id": 484036,
        "tenantId": 2001,
        "channelCategoryId": 100001,
        "channelId": 10504,
        "thirdChannelCode": "",
        "sysCurrency": "INR",
        "customName": "ttttt",
        "thirdPayMerchantId": 344008,
        "merchantCode": "yayapay3",
        "merchantState": 1,
        "payCode": "YayaPayINR",
        "state": 0,
        "channelState": 1,
        "weight": 0,
        "realTimeWeight": 0,
        "successRateInfo": "",
        "recent15MinutesCount": 0,
        "recent30MinutesCount": 0,
        "recent1HourCount": 0,
        "recent24HoursCount": 0,
        "todayProcessedCount": 0,
        "totalProcessedCount": 0,
        "allowStartTime": "00:00",
        "allowEndTime": "23:59",
        "minAmount": 1,
        "maxAmount": 100000,
        "serviceFeeRate": 0,
        "autoCloseBalance": 0,
        "allowRechargeLevel": "",
        "boolAttr": 0,
        "isSupportUtrTest": true,
        "remark": "",
        "lastUpdateMan": "org_figo",
        "lastUpdateTime": 1777706563814
      },
      {
        "id": 484034,
        "tenantId": 2001,
        "channelCategoryId": 100003,
        "channelId": 10725,
        "thirdChannelCode": "",
        "sysCurrency": "INR",
        "customName": "uuuofe",
        "thirdPayMerchantId": 344006,
        "merchantCode": "M1762771883",
        "merchantState": 1,
        "payCode": "YayaPayINR",
        "state": 1,
        "channelState": 1,
        "weight": 100,
        "realTimeWeight": 0,
        "successRateInfo": "",
        "recent15MinutesCount": 0,
        "recent30MinutesCount": 0,
        "recent1HourCount": 0,
        "recent24HoursCount": 0,
        "todayProcessedCount": 0,
        "totalProcessedCount": 0,
        "allowStartTime": "00:00",
        "allowEndTime": "23:59",
        "minAmount": 100,
        "maxAmount": 100000,
        "serviceFeeRate": 0,
        "autoCloseBalance": 0,
        "allowRechargeLevel": "",
        "boolAttr": 0,
        "isSupportUtrTest": true,
        "remark": "",
        "lastUpdateMan": "org_figo",
        "lastUpdateTime": 1778240177768
      },
      {
        "id": 484028,
        "tenantId": 2001,
        "channelCategoryId": 100003,
        "channelId": 10761,
        "thirdChannelCode": "",
        "sysCurrency": "INR",
        "customName": "Test003",
        "thirdPayMerchantId": 344006,
        "merchantCode": "M1762771883",
        "merchantState": 1,
        "payCode": "YayaPayINR",
        "state": 0,
        "channelState": 1,
        "weight": 100,
        "realTimeWeight": 0,
        "successRateInfo": "",
        "recent15MinutesCount": 0,
        "recent30MinutesCount": 0,
        "recent1HourCount": 0,
        "recent24HoursCount": 0,
        "todayProcessedCount": 0,
        "totalProcessedCount": 0,
        "allowStartTime": "00:00",
        "allowEndTime": "23:59",
        "minAmount": 100,
        "maxAmount": 1000000,
        "serviceFeeRate": 0,
        "autoCloseBalance": 0,
        "allowRechargeLevel": "",
        "boolAttr": 0,
        "isSupportUtrTest": true,
        "remark": "",
        "lastUpdateMan": "org_figo",
        "lastUpdateTime": 1778240174649
      },
      {
        "id": 484027,
        "tenantId": 2001,
        "channelCategoryId": 100003,
        "channelId": 10504,
        "thirdChannelCode": "",
        "sysCurrency": "INR",
        "customName": "Test002",
        "thirdPayMerchantId": 344006,
        "merchantCode": "M1762771883",
        "merchantState": 1,
        "payCode": "YayaPayINR",
        "state": 0,
        "channelState": 1,
        "weight": 100,
        "realTimeWeight": 0,
        "successRateInfo": "",
        "recent15MinutesCount": 0,
        "recent30MinutesCount": 0,
        "recent1HourCount": 0,
        "recent24HoursCount": 0,
        "todayProcessedCount": 0,
        "totalProcessedCount": 0,
        "allowStartTime": "00:00",
        "allowEndTime": "23:59",
        "minAmount": 10,
        "maxAmount": 100000,
        "serviceFeeRate": 0,
        "autoCloseBalance": 0,
        "allowRechargeLevel": "",
        "boolAttr": 0,
        "isSupportUtrTest": true,
        "remark": "",
        "lastUpdateMan": "org_figo",
        "lastUpdateTime": 1778240166732
      },
      {
        "id": 484026,
        "tenantId": 2001,
        "channelCategoryId": 100003,
        "channelId": 10503,
        "thirdChannelCode": "",
        "sysCurrency": "INR",
        "customName": "yaypay",
        "thirdPayMerchantId": 344006,
        "merchantCode": "M1762771883",
        "merchantState": 1,
        "payCode": "YayaPayINR",
        "state": 0,
        "channelState": 1,
        "weight": 100,
        "realTimeWeight": 0,
        "successRateInfo": "",
        "recent15MinutesCount": 0,
        "recent30MinutesCount": 0,
        "recent1HourCount": 0,
        "recent24HoursCount": 0,
        "todayProcessedCount": 0,
        "totalProcessedCount": 0,
        "allowStartTime": "00:00",
        "allowEndTime": "23:59",
        "minAmount": 100,
        "maxAmount": 100000,
        "serviceFeeRate": 0,
        "autoCloseBalance": 0,
        "allowRechargeLevel": "",
        "boolAttr": 0,
        "isSupportUtrTest": true,
        "remark": "",
        "lastUpdateMan": "org_figo",
        "lastUpdateTime": 1778240171642
      },
      {
        "id": 484019,
        "tenantId": 2001,
        "channelCategoryId": 100015,
        "channelId": 26000,
        "thirdChannelCode": "",
        "sysCurrency": "INR",
        "customName": "26000-不要动-钱包那边要测试的",
        "thirdPayMerchantId": 340010,
        "merchantCode": "sitweb",
        "merchantState": 1,
        "payCode": "ArbPayINR",
        "state": 1,
        "channelState": 1,
        "weight": 0,
        "realTimeWeight": 0,
        "successRateInfo": "",
        "recent15MinutesCount": 0,
        "recent30MinutesCount": 0,
        "recent1HourCount": 0,
        "recent24HoursCount": 0,
        "todayProcessedCount": 0,
        "totalProcessedCount": 0,
        "allowStartTime": "00:00",
        "allowEndTime": "23:59",
        "minAmount": 1,
        "maxAmount": 999999999999.99,
        "serviceFeeRate": 0,
        "autoCloseBalance": 0,
        "allowRechargeLevel": "",
        "boolAttr": 0,
        "isSupportUtrTest": false,
        "remark": "",
        "lastUpdateMan": "org_len",
        "lastUpdateTime": 1777388066788
      },
      {
        "id": 484018,
        "tenantId": 2001,
        "channelCategoryId": 100014,
        "channelId": 10201,
        "thirdChannelCode": "",
        "sysCurrency": "INR",
        "customName": "apay-不要动这个-钱包那边要用",
        "thirdPayMerchantId": 340010,
        "merchantCode": "sitweb",
        "merchantState": 1,
        "payCode": "ArbPayINR",
        "state": 1,
        "channelState": 1,
        "weight": 0,
        "realTimeWeight": 0,
        "successRateInfo": "",
        "recent15MinutesCount": 0,
        "recent30MinutesCount": 0,
        "recent1HourCount": 0,
        "recent24HoursCount": 0,
        "todayProcessedCount": 0,
        "totalProcessedCount": 0,
        "allowStartTime": "00:00",
        "allowEndTime": "23:59",
        "minAmount": 1,
        "maxAmount": 999999999999,
        "serviceFeeRate": 0,
        "autoCloseBalance": 0,
        "allowRechargeLevel": "",
        "boolAttr": 0,
        "isSupportUtrTest": false,
        "remark": "",
        "lastUpdateMan": "org_len",
        "lastUpdateTime": 1777388003244
      },
      {
        "id": 484009,
        "tenantId": 2001,
        "channelCategoryId": 100009,
        "channelId": 10706,
        "thirdChannelCode": "",
        "sysCurrency": "USDT",
        "customName": "usdt2",
        "thirdPayMerchantId": 344002,
        "merchantCode": "180126",
        "merchantState": 1,
        "payCode": "TetherPayUSDTCU",
        "state": 0,
        "channelState": 1,
        "weight": 30,
        "realTimeWeight": 0,
        "successRateInfo": "",
        "recent15MinutesCount": 0,
        "recent30MinutesCount": 0,
        "recent1HourCount": 0,
        "recent24HoursCount": 0,
        "todayProcessedCount": 0,
        "totalProcessedCount": 0,
        "allowStartTime": "00:00",
        "allowEndTime": "23:59",
        "minAmount": 100,
        "maxAmount": 10000,
        "serviceFeeRate": 0.3132,
        "autoCloseBalance": 0,
        "allowRechargeLevel": "",
        "boolAttr": 0,
        "isSupportUtrTest": false,
        "remark": "",
        "lastUpdateMan": "ar_admin",
        "lastUpdateTime": 1778153420287
      },
      {
        "id": 484002,
        "tenantId": 2001,
        "channelCategoryId": 100009,
        "channelId": 10706,
        "thirdChannelCode": "",
        "sysCurrency": "USDT",
        "customName": "USDT",
        "thirdPayMerchantId": 344001,
        "merchantCode": "180126",
        "merchantState": 1,
        "payCode": "TetherPayUSDTCU",
        "state": 1,
        "channelState": 1,
        "weight": 20,
        "realTimeWeight": 0,
        "successRateInfo": "",
        "recent15MinutesCount": 0,
        "recent30MinutesCount": 0,
        "recent1HourCount": 0,
        "recent24HoursCount": 0,
        "todayProcessedCount": 0,
        "totalProcessedCount": 0,
        "allowStartTime": "00:00",
        "allowEndTime": "23:59",
        "minAmount": 10,
        "maxAmount": 10000,
        "serviceFeeRate": 0,
        "autoCloseBalance": 0,
        "allowRechargeLevel": "",
        "boolAttr": 0,
        "isSupportUtrTest": false,
        "remark": "",
        "lastUpdateMan": "org_figo",
        "lastUpdateTime": 1778221949557
      },
      {
        "id": 480033,
        "tenantId": 2001,
        "channelCategoryId": 100001,
        "channelId": 10696,
        "thirdChannelCode": "",
        "sysCurrency": "INR",
        "customName": "UmoneyPay",
        "thirdPayMerchantId": 340009,
        "merchantCode": "101",
        "merchantState": 1,
        "payCode": "UmoneyPayINR",
        "state": 0,
        "channelState": 1,
        "weight": 500,
        "realTimeWeight": 0,
        "successRateInfo": "",
        "recent15MinutesCount": 0,
        "recent30MinutesCount": 0,
        "recent1HourCount": 0,
        "recent24HoursCount": 0,
        "todayProcessedCount": 0,
        "totalProcessedCount": 0,
        "allowStartTime": "00:00",
        "allowEndTime": "23:59",
        "minAmount": 1,
        "maxAmount": 50000000,
        "serviceFeeRate": 0.3,
        "autoCloseBalance": 0,
        "allowRechargeLevel": "",
        "boolAttr": 0,
        "isSupportUtrTest": true,
        "remark": "",
        "lastUpdateMan": "org_milo",
        "lastUpdateTime": 1777964549578
      },
      {
        "id": 480030,
        "tenantId": 2001,
        "channelCategoryId": 100000,
        "channelId": 10656,
        "thirdChannelCode": "",
        "sysCurrency": "INR",
        "customName": "umoneyPay-三方",
        "thirdPayMerchantId": 340009,
        "merchantCode": "101",
        "merchantState": 1,
        "payCode": "UmoneyPayINR",
        "state": 0,
        "channelState": 1,
        "weight": 0,
        "realTimeWeight": 0,
        "successRateInfo": "",
        "recent15MinutesCount": 0,
        "recent30MinutesCount": 0,
        "recent1HourCount": 0,
        "recent24HoursCount": 0,
        "todayProcessedCount": 0,
        "totalProcessedCount": 0,
        "allowStartTime": "00:00",
        "allowEndTime": "23:59",
        "minAmount": 0,
        "maxAmount": 10000000,
        "serviceFeeRate": 0,
        "autoCloseBalance": 0,
        "allowRechargeLevel": "",
        "boolAttr": 0,
        "isSupportUtrTest": true,
        "remark": "",
        "lastUpdateMan": "ar_admin",
        "lastUpdateTime": 1776701976819
      }
    ],
    "pageNo": 1,
    "totalPage": 2,
    "totalCount": 32
  },
  "code": 0,
  "msg": "成功",
  "msgCode": 0
}