{
  "data": {
    "list": [
      {
        "orgId": 1000,
        "tenantId": 2001,
        "channelType": 1,
        "tenantChannelId": 480028,
        "thirdPayMerchantId": 340009,
        "sysCurrency": "INR",
        "successAmount": 1685145.8,
        "successCount": 746,
        "userCount": 9,
        "successRate": 0
      },
      {
        "orgId": 1000,
        "tenantId": 2001,
        "channelType": 0,
        "tenantChannelId": 3,
        "thirdPayMerchantId": 0,
        "sysCurrency": "INR",
        "successAmount": 404019.86,
        "successCount": 28,
        "userCount": 7,
        "successRate": 0.3636
      },
      {
        "orgId": 1000,
        "tenantId": 2001,
        "channelType": 0,
        "tenantChannelId": 484002,
        "thirdPayMerchantId": 344001,
        "sysCurrency": "INR",
        "successAmount": 99950.31,
        "successCount": 31,
        "userCount": 13,
        "successRate": 0.0032
      },
      {
        "orgId": 1000,
        "tenantId": 2001,
        "channelType": 0,
        "tenantChannelId": 484002,
        "thirdPayMerchantId": 344001,
        "sysCurrency": "USDT",
        "successAmount": 41525.4,
        "successCount": 4,
        "userCount": 1,
        "successRate": 0.8
      },
      {
        "orgId": 1000,
        "tenantId": 2001,
        "channelType": 0,
        "tenantChannelId": 480033,
        "thirdPayMerchantId": 340009,
        "sysCurrency": "INR",
        "successAmount": 36915,
        "successCount": 33,
        "userCount": 6,
        "successRate": 0.8684
      },
      {
        "orgId": 1000,
        "tenantId": 2001,
        "channelType": 0,
        "tenantChannelId": 480031,
        "thirdPayMerchantId": 340010,
        "sysCurrency": "INR",
        "successAmount": 16100,
        "successCount": 6,
        "userCount": 4,
        "successRate": 0.8571
      },
      {
        "orgId": 1000,
        "tenantId": 2001,
        "channelType": 0,
        "tenantChannelId": 9,
        "thirdPayMerchantId": 0,
        "sysCurrency": "INR",
        "successAmount": 12044,
        "successCount": 18,
        "userCount": 5,
        "successRate": 0.4091
      },
      {
        "orgId": 1000,
        "tenantId": 2001,
        "channelType": 0,
        "tenantChannelId": 480032,
        "thirdPayMerchantId": 340010,
        "sysCurrency": "INR",
        "successAmount": 8500,
        "successCount": 1,
        "userCount": 1,
        "successRate": 0.25
      },
      {
        "orgId": 1000,
        "tenantId": 2001,
        "channelType": 0,
        "tenantChannelId": 484009,
        "thirdPayMerchantId": 344002,
        "sysCurrency": "INR",
        "successAmount": 7635.87,
        "successCount": 1,
        "userCount": 1,
        "successRate": 0.0286
      },
      {
        "orgId": 1000,
        "tenantId": 2001,
        "channelType": 0,
        "tenantChannelId": 82,
        "thirdPayMerchantId": 0,
        "sysCurrency": "INR",
        "successAmount": 6527,
        "successCount": 12,
        "userCount": 3,
        "successRate": 0.2857
      },
      {
        "orgId": 1000,
        "tenantId": 2001,
        "channelType": 0,
        "tenantChannelId": 484026,
        "thirdPayMerchantId": 344006,
        "sysCurrency": "INR",
        "successAmount": 5436,
        "successCount": 12,
        "userCount": 9,
        "successRate": 0
      },
      {
        "orgId": 1000,
        "tenantId": 2001,
        "channelType": 0,
        "tenantChannelId": 158,
        "thirdPayMerchantId": 0,
        "sysCurrency": "INR",
        "successAmount": 4807,
        "successCount": 8,
        "userCount": 3,
        "successRate": 0.2963
      },
      {
        "orgId": 1000,
        "tenantId": 2001,
        "channelType": 0,
        "tenantChannelId": 484027,
        "thirdPayMerchantId": 344006,
        "sysCurrency": "INR",
        "successAmount": 4243,
        "successCount": 5,
        "userCount": 3,
        "successRate": 0
      },
      {
        "orgId": 1000,
        "tenantId": 2001,
        "channelType": 0,
        "tenantChannelId": 330001,
        "thirdPayMerchantId": 0,
        "sysCurrency": "INR",
        "successAmount": 3978,
        "successCount": 2,
        "userCount": 1,
        "successRate": 0.5
      },
      {
        "orgId": 1000,
        "tenantId": 2001,
        "channelType": 0,
        "tenantChannelId": 484034,
        "thirdPayMerchantId": 344006,
        "sysCurrency": "INR",
        "successAmount": 3219,
        "successCount": 8,
        "userCount": 6,
        "successRate": 0
      },
      {
        "orgId": 1000,
        "tenantId": 2001,
        "channelType": 0,
        "tenantChannelId": 484028,
        "thirdPayMerchantId": 344006,
        "sysCurrency": "INR",
        "successAmount": 1740,
        "successCount": 4,
        "userCount": 4,
        "successRate": 0
      },
      {
        "orgId": 1000,
        "tenantId": 2001,
        "channelType": 1,
        "tenantChannelId": 484031,
        "thirdPayMerchantId": 344006,
        "sysCurrency": "INR",
        "successAmount": 1614,
        "successCount": 7,
        "userCount": 3,
        "successRate": 0
      },
      {
        "orgId": 1000,
        "tenantId": 2001,
        "channelType": 0,
        "tenantChannelId": 484018,
        "thirdPayMerchantId": 340010,
        "sysCurrency": "INR",
        "successAmount": 1056,
        "successCount": 2,
        "userCount": 2,
        "successRate": 0.3333
      },
      {
        "orgId": 1000,
        "tenantId": 2001,
        "channelType": 0,
        "tenantChannelId": 480030,
        "thirdPayMerchantId": 340009,
        "sysCurrency": "INR",
        "successAmount": 1000,
        "successCount": 1,
        "userCount": 1,
        "successRate": 1
      },
      {
        "orgId": 1000,
        "tenantId": 2001,
        "channelType": 1,
        "tenantChannelId": 480026,
        "thirdPayMerchantId": 340006,
        "sysCurrency": "INR",
        "successAmount": 600,
        "successCount": 1,
        "userCount": 1,
        "successRate": 0
      }
    ],
    "pageNo": 1,
    "totalPage": 2,
    "totalCount": 32
  },
  "code": 0,
  "msg": "成功",
  "msgCode": 0
}