{
  "data": {
    "list": [
      {
        "id": 134005,
        "tenantId": 2001,
        "channelId": 0,
        "customName": "QQ471",
        "bankName": "",
        "bankCode": "",
        "state": 0,
        "isClosedBySystem": false,
        "weight": 0,
        "rechargeLevel": "",
        "accountNo": "1111@6155698",
        "holderName": "",
        "subBranchName": "",
        "ifsccode": "",
        "qrCodeURL": "",
        "minRechargeAmount": 100,
        "maxRechargeAmount": 100000,
        "totalLimitAmount": 0,
        "totalLimitCount": 0,
        "currentTotalLimitAmount": 0,
        "currentTotalCount": 0,
        "sort": 340,
        "remark": "QQ471",
        "lastClearTime": 1778178600000,
        "creator": "org_figo",
        "createTime": 1777988669982,
        "lastUpdateMan": "org_figo",
        "lastUpdateTime": 1777988670002
      },
      {
        "id": 130542,
        "tenantId": 2001,
        "channelId": 0,
        "customName": "TestKK22",
        "bankName": "",
        "bankCode": "",
        "state": 1,
        "isClosedBySystem": false,
        "weight": 0,
        "rechargeLevel": "",
        "accountNo": "2567@8292897",
        "holderName": "",
        "subBranchName": "",
        "ifsccode": "",
        "qrCodeURL": "",
        "minRechargeAmount": 1,
        "maxRechargeAmount": 1000000,
        "totalLimitAmount": 100000000,
        "totalLimitCount": 1000,
        "currentTotalLimitAmount": 0,
        "currentTotalCount": 0,
        "sort": 339,
        "remark": "TestKK",
        "lastClearTime": 1778178600000,
        "creator": "admin",
        "createTime": 3,
        "lastUpdateMan": "org_figo",
        "lastUpdateTime": 1777051343915
      },
      {
        "id": 130541,
        "tenantId": 2001,
        "channelId": 0,
        "customName": "9366@5040948",
        "bankName": "",
        "bankCode": "",
        "state": 1,
        "isClosedBySystem": false,
        "weight": 0,
        "rechargeLevel": "",
        "accountNo": "9366@5040948",
        "holderName": "",
        "subBranchName": "",
        "ifsccode": "",
        "qrCodeURL": "",
        "minRechargeAmount": 1,
        "maxRechargeAmount": 1000000,
        "totalLimitAmount": 100000000,
        "totalLimitCount": 1000,
        "currentTotalLimitAmount": 0,
        "currentTotalCount": 0,
        "sort": 338,
        "remark": "",
        "lastClearTime": 1778178600000,
        "creator": "admin",
        "createTime": 3,
        "lastUpdateMan": "ar_admin",
        "lastUpdateTime": 1776701126975
      },
      {
        "id": 130540,
        "tenantId": 2001,
        "channelId": 0,
        "customName": "6662@8413973",
        "bankName": "",
        "bankCode": "",
        "state": 0,
        "isClosedBySystem": false,
        "weight": 0,
        "rechargeLevel": "",
        "accountNo": "6662@8413973",
        "holderName": "",
        "subBranchName": "",
        "ifsccode": "",
        "qrCodeURL": "",
        "minRechargeAmount": 100,
        "maxRechargeAmount": 1000000,
        "totalLimitAmount": 100000000,
        "totalLimitCount": 1000,
        "currentTotalLimitAmount": 0,
        "currentTotalCount": 0,
        "sort": 337,
        "remark": "",
        "lastClearTime": 1778178600000,
        "creator": "admin",
        "createTime": 3,
        "lastUpdateMan": "admin",
        "lastUpdateTime": 1
      },
      {
        "id": 130539,
        "tenantId": 2001,
        "channelId": 0,
        "customName": "9265@6487659",
        "bankName": "",
        "bankCode": "",
        "state": 0,
        "isClosedBySystem": false,
        "weight": 0,
        "rechargeLevel": "",
        "accountNo": "9265@6487659",
        "holderName": "",
        "subBranchName": "",
        "ifsccode": "",
        "qrCodeURL": "",
        "minRechargeAmount": 100,
        "maxRechargeAmount": 1000000,
        "totalLimitAmount": 100000000,
        "totalLimitCount": 1000,
        "currentTotalLimitAmount": 0,
        "currentTotalCount": 0,
        "sort": 336,
        "remark": "",
        "lastClearTime": 1778178600000,
        "creator": "admin",
        "createTime": 3,
        "lastUpdateMan": "admin",
        "lastUpdateTime": 1
      },
      {
        "id": 130538,
        "tenantId": 2001,
        "channelId": 0,
        "customName": "9876@4292968",
        "bankName": "",
        "bankCode": "",
        "state": 0,
        "isClosedBySystem": false,
        "weight": 0,
        "rechargeLevel": "",
        "accountNo": "9876@4292968",
        "holderName": "",
        "subBranchName": "",
        "ifsccode": "",
        "qrCodeURL": "",
        "minRechargeAmount": 100,
        "maxRechargeAmount": 1000000,
        "totalLimitAmount": 100000000,
        "totalLimitCount": 1000,
        "currentTotalLimitAmount": 0,
        "currentTotalCount": 0,
        "sort": 335,
        "remark": "",
        "lastClearTime": 1778178600000,
        "creator": "admin",
        "createTime": 3,
        "lastUpdateMan": "admin",
        "lastUpdateTime": 1
      },
      {
        "id": 130537,
        "tenantId": 2001,
        "channelId": 0,
        "customName": "6226@8135091",
        "bankName": "",
        "bankCode": "",
        "state": 0,
        "isClosedBySystem": false,
        "weight": 0,
        "rechargeLevel": "",
        "accountNo": "6226@8135091",
        "holderName": "",
        "subBranchName": "",
        "ifsccode": "",
        "qrCodeURL": "",
        "minRechargeAmount": 100,
        "maxRechargeAmount": 1000000,
        "totalLimitAmount": 100000000,
        "totalLimitCount": 1000,
        "currentTotalLimitAmount": 0,
        "currentTotalCount": 0,
        "sort": 334,
        "remark": "",
        "lastClearTime": 1778178600000,
        "creator": "admin",
        "createTime": 3,
        "lastUpdateMan": "admin",
        "lastUpdateTime": 1
      },
      {
        "id": 130536,
        "tenantId": 2001,
        "channelId": 0,
        "customName": "9809@4078389",
        "bankName": "",
        "bankCode": "",
        "state": 0,
        "isClosedBySystem": false,
        "weight": 0,
        "rechargeLevel": "",
        "accountNo": "9809@4078389",
        "holderName": "",
        "subBranchName": "",
        "ifsccode": "",
        "qrCodeURL": "",
        "minRechargeAmount": 100,
        "maxRechargeAmount": 1000000,
        "totalLimitAmount": 100000000,
        "totalLimitCount": 1000,
        "currentTotalLimitAmount": 0,
        "currentTotalCount": 0,
        "sort": 333,
        "remark": "",
        "lastClearTime": 1778178600000,
        "creator": "admin",
        "createTime": 3,
        "lastUpdateMan": "org_figo",
        "lastUpdateTime": 1776679287445
      },
      {
        "id": 130535,
        "tenantId": 2001,
        "channelId": 0,
        "customName": "2633@3233476",
        "bankName": "",
        "bankCode": "",
        "state": 0,
        "isClosedBySystem": false,
        "weight": 0,
        "rechargeLevel": "",
        "accountNo": "2633@3233476",
        "holderName": "",
        "subBranchName": "",
        "ifsccode": "",
        "qrCodeURL": "",
        "minRechargeAmount": 100,
        "maxRechargeAmount": 1000000,
        "totalLimitAmount": 100000000,
        "totalLimitCount": 1000,
        "currentTotalLimitAmount": 0,
        "currentTotalCount": 0,
        "sort": 332,
        "remark": "",
        "lastClearTime": 1778178600000,
        "creator": "admin",
        "createTime": 3,
        "lastUpdateMan": "admin",
        "lastUpdateTime": 1
      },
      {
        "id": 130534,
        "tenantId": 2001,
        "channelId": 0,
        "customName": "2469@5871432",
        "bankName": "",
        "bankCode": "",
        "state": 0,
        "isClosedBySystem": false,
        "weight": 0,
        "rechargeLevel": "",
        "accountNo": "2469@5871432",
        "holderName": "",
        "subBranchName": "",
        "ifsccode": "",
        "qrCodeURL": "",
        "minRechargeAmount": 100,
        "maxRechargeAmount": 1000000,
        "totalLimitAmount": 100000000,
        "totalLimitCount": 1000,
        "currentTotalLimitAmount": 0,
        "currentTotalCount": 0,
        "sort": 331,
        "remark": "",
        "lastClearTime": 1778178600000,
        "creator": "admin",
        "createTime": 3,
        "lastUpdateMan": "admin",
        "lastUpdateTime": 1
      },
      {
        "id": 130533,
        "tenantId": 2001,
        "channelId": 0,
        "customName": "6555@1003605",
        "bankName": "",
        "bankCode": "",
        "state": 0,
        "isClosedBySystem": false,
        "weight": 0,
        "rechargeLevel": "",
        "accountNo": "6555@1003605",
        "holderName": "",
        "subBranchName": "",
        "ifsccode": "",
        "qrCodeURL": "",
        "minRechargeAmount": 100,
        "maxRechargeAmount": 1000000,
        "totalLimitAmount": 100000000,
        "totalLimitCount": 1000,
        "currentTotalLimitAmount": 0,
        "currentTotalCount": 0,
        "sort": 330,
        "remark": "",
        "lastClearTime": 1778178600000,
        "creator": "admin",
        "createTime": 3,
        "lastUpdateMan": "admin",
        "lastUpdateTime": 1
      },
      {
        "id": 130532,
        "tenantId": 2001,
        "channelId": 0,
        "customName": "3280@4739764",
        "bankName": "",
        "bankCode": "",
        "state": 0,
        "isClosedBySystem": false,
        "weight": 0,
        "rechargeLevel": "",
        "accountNo": "3280@4739764",
        "holderName": "",
        "subBranchName": "",
        "ifsccode": "",
        "qrCodeURL": "",
        "minRechargeAmount": 100,
        "maxRechargeAmount": 1000000,
        "totalLimitAmount": 100000000,
        "totalLimitCount": 1000,
        "currentTotalLimitAmount": 0,
        "currentTotalCount": 0,
        "sort": 329,
        "remark": "",
        "lastClearTime": 1778178600000,
        "creator": "admin",
        "createTime": 3,
        "lastUpdateMan": "admin",
        "lastUpdateTime": 1
      },
      {
        "id": 130531,
        "tenantId": 2001,
        "channelId": 0,
        "customName": "2834@1044736",
        "bankName": "",
        "bankCode": "",
        "state": 0,
        "isClosedBySystem": false,
        "weight": 0,
        "rechargeLevel": "",
        "accountNo": "2834@1044736",
        "holderName": "",
        "subBranchName": "",
        "ifsccode": "",
        "qrCodeURL": "",
        "minRechargeAmount": 100,
        "maxRechargeAmount": 1000000,
        "totalLimitAmount": 100000000,
        "totalLimitCount": 1000,
        "currentTotalLimitAmount": 0,
        "currentTotalCount": 0,
        "sort": 328,
        "remark": "",
        "lastClearTime": 1778178600000,
        "creator": "admin",
        "createTime": 3,
        "lastUpdateMan": "admin",
        "lastUpdateTime": 1
      },
      {
        "id": 130530,
        "tenantId": 2001,
        "channelId": 0,
        "customName": "5063@1072757",
        "bankName": "",
        "bankCode": "",
        "state": 0,
        "isClosedBySystem": false,
        "weight": 0,
        "rechargeLevel": "",
        "accountNo": "5063@1072757",
        "holderName": "",
        "subBranchName": "",
        "ifsccode": "",
        "qrCodeURL": "",
        "minRechargeAmount": 100,
        "maxRechargeAmount": 1000000,
        "totalLimitAmount": 100000000,
        "totalLimitCount": 1000,
        "currentTotalLimitAmount": 0,
        "currentTotalCount": 0,
        "sort": 327,
        "remark": "",
        "lastClearTime": 1778178600000,
        "creator": "admin",
        "createTime": 3,
        "lastUpdateMan": "admin",
        "lastUpdateTime": 1
      },
      {
        "id": 130529,
        "tenantId": 2001,
        "channelId": 0,
        "customName": "5821@6181691",
        "bankName": "",
        "bankCode": "",
        "state": 0,
        "isClosedBySystem": false,
        "weight": 0,
        "rechargeLevel": "",
        "accountNo": "5821@6181691",
        "holderName": "",
        "subBranchName": "",
        "ifsccode": "",
        "qrCodeURL": "",
        "minRechargeAmount": 100,
        "maxRechargeAmount": 1000000,
        "totalLimitAmount": 100000000,
        "totalLimitCount": 1000,
        "currentTotalLimitAmount": 0,
        "currentTotalCount": 0,
        "sort": 326,
        "remark": "",
        "lastClearTime": 1778178600000,
        "creator": "admin",
        "createTime": 3,
        "lastUpdateMan": "admin",
        "lastUpdateTime": 1
      },
      {
        "id": 130528,
        "tenantId": 2001,
        "channelId": 0,
        "customName": "3194@1444197",
        "bankName": "",
        "bankCode": "",
        "state": 0,
        "isClosedBySystem": false,
        "weight": 0,
        "rechargeLevel": "",
        "accountNo": "3194@1444197",
        "holderName": "",
        "subBranchName": "",
        "ifsccode": "",
        "qrCodeURL": "",
        "minRechargeAmount": 100,
        "maxRechargeAmount": 1000000,
        "totalLimitAmount": 100000000,
        "totalLimitCount": 1000,
        "currentTotalLimitAmount": 0,
        "currentTotalCount": 0,
        "sort": 325,
        "remark": "",
        "lastClearTime": 1778178600000,
        "creator": "admin",
        "createTime": 3,
        "lastUpdateMan": "admin",
        "lastUpdateTime": 1
      },
      {
        "id": 130527,
        "tenantId": 2001,
        "channelId": 0,
        "customName": "2258@8770903",
        "bankName": "",
        "bankCode": "",
        "state": 0,
        "isClosedBySystem": false,
        "weight": 0,
        "rechargeLevel": "",
        "accountNo": "2258@8770903",
        "holderName": "",
        "subBranchName": "",
        "ifsccode": "",
        "qrCodeURL": "",
        "minRechargeAmount": 100,
        "maxRechargeAmount": 1000000,
        "totalLimitAmount": 100000000,
        "totalLimitCount": 1000,
        "currentTotalLimitAmount": 0,
        "currentTotalCount": 0,
        "sort": 324,
        "remark": "",
        "lastClearTime": 1778178600000,
        "creator": "admin",
        "createTime": 3,
        "lastUpdateMan": "admin",
        "lastUpdateTime": 1
      },
      {
        "id": 130526,
        "tenantId": 2001,
        "channelId": 0,
        "customName": "6024@5002405",
        "bankName": "",
        "bankCode": "",
        "state": 0,
        "isClosedBySystem": false,
        "weight": 0,
        "rechargeLevel": "",
        "accountNo": "6024@5002405",
        "holderName": "",
        "subBranchName": "",
        "ifsccode": "",
        "qrCodeURL": "",
        "minRechargeAmount": 100,
        "maxRechargeAmount": 1000000,
        "totalLimitAmount": 100000000,
        "totalLimitCount": 1000,
        "currentTotalLimitAmount": 0,
        "currentTotalCount": 0,
        "sort": 323,
        "remark": "",
        "lastClearTime": 1778178600000,
        "creator": "admin",
        "createTime": 3,
        "lastUpdateMan": "admin",
        "lastUpdateTime": 1
      },
      {
        "id": 130525,
        "tenantId": 2001,
        "channelId": 0,
        "customName": "8581@5938968",
        "bankName": "",
        "bankCode": "",
        "state": 0,
        "isClosedBySystem": false,
        "weight": 0,
        "rechargeLevel": "",
        "accountNo": "8581@5938968",
        "holderName": "",
        "subBranchName": "",
        "ifsccode": "",
        "qrCodeURL": "",
        "minRechargeAmount": 100,
        "maxRechargeAmount": 1000000,
        "totalLimitAmount": 100000000,
        "totalLimitCount": 1000,
        "currentTotalLimitAmount": 0,
        "currentTotalCount": 0,
        "sort": 322,
        "remark": "",
        "lastClearTime": 1778178600000,
        "creator": "admin",
        "createTime": 3,
        "lastUpdateMan": "admin",
        "lastUpdateTime": 1
      },
      {
        "id": 130524,
        "tenantId": 2001,
        "channelId": 0,
        "customName": "7243@3170400",
        "bankName": "",
        "bankCode": "",
        "state": 0,
        "isClosedBySystem": false,
        "weight": 0,
        "rechargeLevel": "",
        "accountNo": "7243@3170400",
        "holderName": "",
        "subBranchName": "",
        "ifsccode": "",
        "qrCodeURL": "",
        "minRechargeAmount": 100,
        "maxRechargeAmount": 1000000,
        "totalLimitAmount": 100000000,
        "totalLimitCount": 1000,
        "currentTotalLimitAmount": 0,
        "currentTotalCount": 0,
        "sort": 321,
        "remark": "",
        "lastClearTime": 1778178600000,
        "creator": "admin",
        "createTime": 3,
        "lastUpdateMan": "admin",
        "lastUpdateTime": 1
      }
    ],
    "pageNo": 1,
    "totalPage": 10,
    "totalCount": 198
  },
  "code": 0,
  "msg": "成功",
  "msgCode": 0
}