{
  "data": {
    "list": [
      {
        "logID": 87402967,
        "logTitle": "修改下载APP奖励配置",
        "userName": "luna（luna）",
        "userIP": "8.211.42.128",
        "userIPArea": "Germany Hesse",
        "userOS": "Windows NT",
        "userIE": "Chrome147.0",
        "logDateStr": "2026-05-08 15:38:58",
        "logState": 1,
        "logStateStr": "成功",
        "logInfo": ",参数配置【下载APP奖励配置 DownAppRewardConfig 旧:{\"RechargeAmount\":1.0,\"BonusAmount\":9.0,\"TargetType\":1,\"State\":1,\"NotLoginDay\":1,\"UserList\":null,\"IsShowBonusAmount\":1,\"SameDeviceLimit\":100,\"SameIpLimit\":1000}-> 新:{\"RechargeAmount\":100.0,\"BonusAmount\":10.0,\"TargetType\":1,\"State\":1,\"NotLoginDay\":1,\"UserList\":null,\"IsShowBonusAmount\":1,\"SameDeviceLimit\":100,\"SameIpLimit\":1000}】",
        "logType": 2,
        "pageName": "活动管理",
        "pageUrl": "/Admin_UERP/System/SaveDownAppRewardConfig",
        "dataID": 0,
        "dataName": "",
        "dataValue": ""
      },
      {
        "logID": 87402966,
        "logTitle": "用户登录",
        "userName": "luna（luna）",
        "userIP": "8.211.42.128",
        "userIPArea": "Germany Hesse",
        "userOS": "Windows NT",
        "userIE": "Chrome147.0",
        "logDateStr": "2026-05-08 15:38:33",
        "logState": 1,
        "logStateStr": "成功",
        "logInfo": "登录成功！",
        "logType": 1,
        "pageName": "用户用户登录",
        "pageUrl": "/Admin_UERP/Account/ToLogin",
        "dataID": 0,
        "dataName": "",
        "dataValue": ""
      },
      {
        "logID": 87402965,
        "logTitle": "参数配置",
        "userName": "figo（Figo）",
        "userIP": "8.211.42.128",
        "userIPArea": "Germany Hesse",
        "userOS": "Windows NT",
        "userIE": "Chrome147.0",
        "logDateStr": "2026-05-08 15:33:27",
        "logState": 1,
        "logStateStr": "成功",
        "logInfo": "【彩票大额投注预警金额(WarningAmountForLargeBets)】，【500】→【10000】。",
        "logType": 99,
        "pageName": "系统配置-参数配置",
        "pageUrl": "/Admin_UERP/System/SetParameterConfig",
        "dataID": 397,
        "dataName": "彩票大额投注预警金额",
        "dataValue": "【500】→【10000】。"
      },
      {
        "logID": 87402964,
        "logTitle": "自动出款配置",
        "userName": "milo（milo）",
        "userIP": "8.211.42.128",
        "userIPArea": "Germany Hesse",
        "userOS": "Windows NT",
        "userIE": "Chrome147.0",
        "logDateStr": "2026-05-08 15:09:49",
        "logState": 1,
        "logStateStr": "成功",
        "logInfo": "是否开启自动出款开关：【1】->【0】,\r\n无充值连续提现次数：【2000000】->【2000】,\r\n",
        "logType": 2,
        "pageName": "自动出款配置",
        "pageUrl": "/Admin_UERP/System/SetAutoWithdrawConfig",
        "dataID": 0,
        "dataName": "",
        "dataValue": ""
      },
      {
        "logID": 87402963,
        "logTitle": "参数配置",
        "userName": "micheal（micheal）",
        "userIP": "8.211.42.128",
        "userIPArea": "Germany Hesse",
        "userOS": "Windows NT",
        "userIE": "Chrome147.0",
        "logDateStr": "2026-05-08 13:25:28",
        "logState": 1,
        "logStateStr": "成功",
        "logInfo": "【同IP当日短信下发数上限(ThatDayIPSendSmsCount)】，【3】→【10】。",
        "logType": 99,
        "pageName": "系统配置-参数配置",
        "pageUrl": "/Admin_UERP/System/SetParameterConfig",
        "dataID": 380,
        "dataName": "同IP当日短信下发数上限",
        "dataValue": "【3】→【10】。"
      },
      {
        "logID": 87402962,
        "logTitle": "参数配置",
        "userName": "micheal（micheal）",
        "userIP": "8.211.42.128",
        "userIPArea": "Germany Hesse",
        "userOS": "Windows NT",
        "userIE": "Chrome147.0",
        "logDateStr": "2026-05-08 13:25:24",
        "logState": 1,
        "logStateStr": "成功",
        "logInfo": "【当日同一账号短信下发数(SendAccountCount)】，【2】→【10】。",
        "logType": 99,
        "pageName": "系统配置-参数配置",
        "pageUrl": "/Admin_UERP/System/SetParameterConfig",
        "dataID": 128,
        "dataName": "当日同一账号短信下发数",
        "dataValue": "【2】→【10】。"
      },
      {
        "logID": 87402961,
        "logTitle": "用户登录",
        "userName": "admin（admin）",
        "userIP": "8.211.42.128",
        "userIPArea": "Germany Hesse",
        "userOS": "Windows 10",
        "userIE": "Chrome146.0",
        "logDateStr": "2026-05-08 13:11:57",
        "logState": 1,
        "logStateStr": "成功",
        "logInfo": "登录成功！",
        "logType": 1,
        "pageName": "用户用户登录",
        "pageUrl": "/Admin_UERP/Account/ToLogin",
        "dataID": 0,
        "dataName": "",
        "dataValue": ""
      },
      {
        "logID": 87402960,
        "logTitle": "设置打码量",
        "userName": "figo（Figo）",
        "userIP": "8.211.42.128",
        "userIPArea": "Germany Hesse",
        "userOS": "Windows NT",
        "userIE": "Chrome147.0",
        "logDateStr": "2026-05-08 12:51:15",
        "logState": 1,
        "logStateStr": "成功",
        "logInfo": "打码量设置：0,操作得用户ID：2247199",
        "logType": 2,
        "pageName": "设置打码量",
        "pageUrl": "/Admin_UERP/UserInfo/SetAmountofCode",
        "dataID": 0,
        "dataName": "",
        "dataValue": ""
      },
      {
        "logID": 87402959,
        "logTitle": "设置打码量",
        "userName": "figo（Figo）",
        "userIP": "8.211.42.128",
        "userIPArea": "Germany Hesse",
        "userOS": "Windows NT",
        "userIE": "Chrome147.0",
        "logDateStr": "2026-05-08 12:51:10",
        "logState": 1,
        "logStateStr": "成功",
        "logInfo": "打码量设置：-9987167.6,操作得用户ID：2247199",
        "logType": 2,
        "pageName": "设置打码量",
        "pageUrl": "/Admin_UERP/UserInfo/SetAmountofCode",
        "dataID": 0,
        "dataName": "",
        "dataValue": ""
      },
      {
        "logID": 87402958,
        "logTitle": "系统管理",
        "userName": "system",
        "userIP": "",
        "userIPArea": "",
        "userOS": "",
        "userIE": "",
        "logDateStr": "2026-05-08 12:30:21",
        "logState": 1,
        "logStateStr": "成功",
        "logInfo": "当前会员【100000】已加入黑名单，不进行通道【10706】充值赠送，充值金额【943.90】，赠送金额【943.9000】",
        "logType": 2,
        "pageName": "会员活动黑名单",
        "pageUrl": "",
        "dataID": 0,
        "dataName": "",
        "dataValue": ""
      },
      {
        "logID": 87402957,
        "logTitle": "系统管理",
        "userName": "system",
        "userIP": "",
        "userIPArea": "",
        "userOS": "",
        "userIE": "",
        "logDateStr": "2026-05-08 12:03:00",
        "logState": 1,
        "logStateStr": "成功",
        "logInfo": "当前会员【100000】已加入黑名单，不进行通道【10706】充值赠送，充值金额【1887.80】，赠送金额【30.0000】",
        "logType": 2,
        "pageName": "会员活动黑名单",
        "pageUrl": "",
        "dataID": 0,
        "dataName": "",
        "dataValue": ""
      },
      {
        "logID": 87402956,
        "logTitle": "自动出款配置",
        "userName": "ben（ben）",
        "userIP": "8.211.42.128",
        "userIPArea": "Germany Hesse",
        "userOS": "Windows NT",
        "userIE": "Chrome147.0",
        "logDateStr": "2026-05-08 11:29:25",
        "logState": 1,
        "logStateStr": "成功",
        "logInfo": "无充值连续提现次数：【2000】->【2000000】,\r\n本次修改后的提现金额不大于上次配置的提现金额,不开启自动下款任务，修改前的提现金额是：1000000.00, 修改后的提现金额是：1000000.00\r\n",
        "logType": 2,
        "pageName": "自动出款配置",
        "pageUrl": "/Admin_UERP/System/SetAutoWithdrawConfig",
        "dataID": 0,
        "dataName": "",
        "dataValue": ""
      },
      {
        "logID": 87402955,
        "logTitle": "用户登录",
        "userName": "ben（ben）",
        "userIP": "8.211.42.128",
        "userIPArea": "Germany Hesse",
        "userOS": "Windows NT",
        "userIE": "Chrome147.0",
        "logDateStr": "2026-05-08 11:28:41",
        "logState": 1,
        "logStateStr": "成功",
        "logInfo": "登录成功！",
        "logType": 1,
        "pageName": "用户用户登录",
        "pageUrl": "/Admin_UERP/Account/ToLogin",
        "dataID": 0,
        "dataName": "",
        "dataValue": ""
      },
      {
        "logID": 87402954,
        "logTitle": "自动出款配置",
        "userName": "milo（milo）",
        "userIP": "8.211.42.128",
        "userIPArea": "Germany Hesse",
        "userOS": "Windows NT",
        "userIE": "Chrome147.0",
        "logDateStr": "2026-05-08 11:27:42",
        "logState": 1,
        "logStateStr": "成功",
        "logInfo": "是否开启自动出款开关：【0】->【1】,\r\n本次修改后的提现金额不大于上次配置的提现金额,不开启自动下款任务，修改前的提现金额是：1000000.00, 修改后的提现金额是：1000000.00\r\n",
        "logType": 2,
        "pageName": "自动出款配置",
        "pageUrl": "/Admin_UERP/System/SetAutoWithdrawConfig",
        "dataID": 0,
        "dataName": "",
        "dataValue": ""
      },
      {
        "logID": 87402953,
        "logTitle": "用户登录",
        "userName": "milo（milo）",
        "userIP": "8.211.42.128",
        "userIPArea": "Germany Hesse",
        "userOS": "Windows NT",
        "userIE": "Chrome147.0",
        "logDateStr": "2026-05-08 11:26:47",
        "logState": 1,
        "logStateStr": "成功",
        "logInfo": "登录成功！",
        "logType": 1,
        "pageName": "用户用户登录",
        "pageUrl": "/Admin_UERP/Account/ToLogin",
        "dataID": 0,
        "dataName": "",
        "dataValue": ""
      },
      {
        "logID": 87402952,
        "logTitle": "用户登录",
        "userName": "figo（Figo）",
        "userIP": "8.211.42.128",
        "userIPArea": "Germany Hesse",
        "userOS": "Windows NT",
        "userIE": "Chrome147.0",
        "logDateStr": "2026-05-08 11:26:25",
        "logState": 1,
        "logStateStr": "成功",
        "logInfo": "登录成功！",
        "logType": 1,
        "pageName": "用户用户登录",
        "pageUrl": "/Admin_UERP/Account/ToLogin",
        "dataID": 0,
        "dataName": "",
        "dataValue": ""
      },
      {
        "logID": 87402951,
        "logTitle": "修改会员密码",
        "userName": "中台_org_alex",
        "userIP": "8.211.42.128",
        "userIPArea": "",
        "userOS": "",
        "userIE": "",
        "logDateStr": "2026-05-08 11:13:57",
        "logState": 1,
        "logStateStr": "成功",
        "logInfo": "修改会员密码，会员ID:100000",
        "logType": 2,
        "pageName": "用户管理",
        "pageUrl": "/api/v1/Users/EditUserpwdSubmit",
        "dataID": 0,
        "dataName": "",
        "dataValue": ""
      },
      {
        "logID": 87402950,
        "logTitle": "用户登录",
        "userName": "luna（luna）",
        "userIP": "8.211.42.128",
        "userIPArea": "Germany Hesse",
        "userOS": "Windows NT",
        "userIE": "Chrome147.0",
        "logDateStr": "2026-05-08 11:03:37",
        "logState": 1,
        "logStateStr": "成功",
        "logInfo": "登录成功！",
        "logType": 1,
        "pageName": "用户用户登录",
        "pageUrl": "/Admin_UERP/Account/ToLogin",
        "dataID": 0,
        "dataName": "",
        "dataValue": ""
      },
      {
        "logID": 87402949,
        "logTitle": "用户登录",
        "userName": "figo1（figo1）",
        "userIP": "8.211.42.128",
        "userIPArea": "Germany Hesse",
        "userOS": "Windows NT",
        "userIE": "Firefox150.0",
        "logDateStr": "2026-05-08 10:39:23",
        "logState": 1,
        "logStateStr": "成功",
        "logInfo": "登录成功！",
        "logType": 1,
        "pageName": "用户用户登录",
        "pageUrl": "/Admin_UERP/Account/ToLogin",
        "dataID": 0,
        "dataName": "",
        "dataValue": ""
      },
      {
        "logID": 87402948,
        "logTitle": "用户登录",
        "userName": "rocky（rocky）",
        "userIP": "8.211.42.128",
        "userIPArea": "Germany Hesse",
        "userOS": "Windows 10",
        "userIE": "Chrome148.0",
        "logDateStr": "2026-05-08 10:08:31",
        "logState": 1,
        "logStateStr": "成功",
        "logInfo": "登录成功！",
        "logType": 1,
        "pageName": "用户用户登录",
        "pageUrl": "/Admin_UERP/Account/ToLogin",
        "dataID": 0,
        "dataName": "",
        "dataValue": ""
      }
    ],
    "pageNo": 1,
    "totalPage": 1108,
    "totalCount": 22146
  },
  "code": 0,
  "msg": "成功",
  "msgCode": 0
}