{
  "data": {
    "list": [
      {
        "logID": 88683,
        "userId": 600855,
        "logTitle": "验证码短信发送",
        "userName": "919053021765",
        "userIP": "",
        "userIPArea": "",
        "userOS": "",
        "userIE": "",
        "logDateStr": "2026-05-08 13:22:46",
        "logState": 0,
        "logStateStr": "失败",
        "logInfo": "[13]短信发送失败!",
        "logType": 2,
        "pageName": "验证码短信发送",
        "pageUrl": "",
        "dataID": 0,
        "dataName": "",
        "dataValue": ""
      },
      {
        "logID": 88682,
        "userId": 2244018,
        "logTitle": "添加UPI",
        "userName": "9155555555001",
        "userIP": "",
        "userIPArea": "",
        "userOS": "",
        "userIE": "",
        "logDateStr": "2026-05-08 11:17:49",
        "logState": 1,
        "logStateStr": "成功",
        "logInfo": "会员添加UPI，参数UPIID8570900603@freoicici,实际UPIID8570900603@freoicici, UPI Name:LUNA",
        "logType": 2,
        "pageName": "添加UPI",
        "pageUrl": "",
        "dataID": 0,
        "dataName": "",
        "dataValue": ""
      },
      {
        "logID": 88681,
        "userId": 2247519,
        "logTitle": "添加PIX",
        "userName": "aliwenben@gmail.com",
        "userIP": "",
        "userIPArea": "",
        "userOS": "",
        "userIE": "",
        "logDateStr": "2026-05-08 10:59:48",
        "logState": 1,
        "logStateStr": "成功",
        "logInfo": "会员添加PIX，账号52998224725, 姓名ben, CPF52998224725",
        "logType": 2,
        "pageName": "添加PIX",
        "pageUrl": "",
        "dataID": 0,
        "dataName": "",
        "dataValue": ""
      },
      {
        "logID": 88680,
        "userId": 2247519,
        "logTitle": "添加电子钱包",
        "userName": "aliwenben@gmail.com",
        "userIP": "",
        "userIPArea": "",
        "userOS": "",
        "userIE": "",
        "logDateStr": "2026-05-08 10:54:33",
        "logState": 1,
        "logStateStr": "成功",
        "logInfo": "会员添加电子钱包，电子钱包帐号880247110465, 收款人TT",
        "logType": 2,
        "pageName": "添加电子钱包",
        "pageUrl": "",
        "dataID": 0,
        "dataName": "",
        "dataValue": ""
      },
      {
        "logID": 88679,
        "userId": 2247519,
        "logTitle": "添加电子钱包",
        "userName": "aliwenben@gmail.com",
        "userIP": "",
        "userIPArea": "",
        "userOS": "",
        "userIE": "",
        "logDateStr": "2026-05-08 10:52:25",
        "logState": 1,
        "logStateStr": "成功",
        "logInfo": "会员添加电子钱包，电子钱包帐号09977827977, 收款人TT",
        "logType": 2,
        "pageName": "添加电子钱包",
        "pageUrl": "",
        "dataID": 0,
        "dataName": "",
        "dataValue": ""
      },
      {
        "logID": 88678,
        "userId": 2247519,
        "logTitle": "添加电子钱包",
        "userName": "aliwenben@gmail.com",
        "userIP": "",
        "userIPArea": "",
        "userOS": "",
        "userIE": "",
        "logDateStr": "2026-05-08 10:51:28",
        "logState": 1,
        "logStateStr": "成功",
        "logInfo": "会员添加电子钱包，电子钱包帐号0997782797, 收款人TT",
        "logType": 2,
        "pageName": "添加电子钱包",
        "pageUrl": "",
        "dataID": 0,
        "dataName": "",
        "dataValue": ""
      },
      {
        "logID": 88677,
        "userId": 2103150,
        "logTitle": "添加FastUPI",
        "userName": "911991000021",
        "userIP": "",
        "userIPArea": "",
        "userOS": "",
        "userIE": "",
        "logDateStr": "2026-05-07 19:08:49",
        "logState": 1,
        "logStateStr": "成功",
        "logInfo": "会员添加FastUPI，参数UPIID8570900sun-2@ybl,实际UPIID8570900603@ybl, UPI Name:LUKAS",
        "logType": 2,
        "pageName": "添加FastUPI",
        "pageUrl": "",
        "dataID": 0,
        "dataName": "",
        "dataValue": ""
      },
      {
        "logID": 88676,
        "userId": 2247554,
        "logTitle": "添加USDT",
        "userName": "michealtest001@gmail.com",
        "userIP": "",
        "userIPArea": "",
        "userOS": "",
        "userIE": "",
        "logDateStr": "2026-05-06 18:09:18",
        "logState": 1,
        "logStateStr": "成功",
        "logInfo": "会员添加USDT，USDT地址T112asdasdas3123123ssadase1231231231",
        "logType": 2,
        "pageName": "添加USDT",
        "pageUrl": "",
        "dataID": 0,
        "dataName": "",
        "dataValue": ""
      },
      {
        "logID": 88675,
        "userId": 2247491,
        "logTitle": "添加USDT",
        "userName": "6688888888",
        "userIP": "",
        "userIPArea": "",
        "userOS": "",
        "userIE": "",
        "logDateStr": "2026-05-01 15:26:41",
        "logState": 1,
        "logStateStr": "成功",
        "logInfo": "会员添加USDT，USDT地址TR7NHqjeKQxGTCi8q8ZY4pL8otSzgjLj6t",
        "logType": 2,
        "pageName": "添加USDT",
        "pageUrl": "",
        "dataID": 0,
        "dataName": "",
        "dataValue": ""
      },
      {
        "logID": 88674,
        "userId": 2247359,
        "logTitle": "添加银行卡",
        "userName": "918138071483",
        "userIP": "",
        "userIPArea": "",
        "userOS": "",
        "userIE": "",
        "logDateStr": "2026-04-30 18:49:04",
        "logState": 1,
        "logStateStr": "成功",
        "logInfo": "会员添加银行卡，银行卡号10268563634, 收款人LOVEPREET SINGH",
        "logType": 2,
        "pageName": "添加银行卡",
        "pageUrl": "",
        "dataID": 0,
        "dataName": "",
        "dataValue": ""
      },
      {
        "logID": 88673,
        "userId": 2247491,
        "logTitle": "添加银行卡",
        "userName": "6688888888",
        "userIP": "",
        "userIPArea": "",
        "userOS": "",
        "userIE": "",
        "logDateStr": "2026-04-30 12:16:25",
        "logState": 1,
        "logStateStr": "成功",
        "logInfo": "会员添加银行卡，银行卡号12457412287, 收款人EWER",
        "logType": 2,
        "pageName": "添加银行卡",
        "pageUrl": "",
        "dataID": 0,
        "dataName": "",
        "dataValue": ""
      },
      {
        "logID": 88672,
        "userId": 2247199,
        "logTitle": "添加UPI",
        "userName": "918138071482",
        "userIP": "",
        "userIPArea": "",
        "userOS": "",
        "userIE": "",
        "logDateStr": "2026-04-29 17:13:53",
        "logState": 1,
        "logStateStr": "成功",
        "logInfo": "会员添加UPI，参数UPIID9053021765@ptyes,实际UPIID9053021765@ptyes, UPI Name:PARVINDER KAUR",
        "logType": 2,
        "pageName": "添加UPI",
        "pageUrl": "",
        "dataID": 0,
        "dataName": "",
        "dataValue": ""
      },
      {
        "logID": 88671,
        "userId": 2247621,
        "logTitle": "添加银行卡",
        "userName": "9188888888",
        "userIP": "",
        "userIPArea": "",
        "userOS": "",
        "userIE": "",
        "logDateStr": "2026-04-29 12:30:01",
        "logState": 1,
        "logStateStr": "成功",
        "logInfo": "会员添加银行卡，银行卡号12457889562, 收款人QWEQW",
        "logType": 2,
        "pageName": "添加银行卡",
        "pageUrl": "",
        "dataID": 0,
        "dataName": "",
        "dataValue": ""
      },
      {
        "logID": 88670,
        "userId": 2247621,
        "logTitle": "添加USDT",
        "userName": "9188888888",
        "userIP": "",
        "userIPArea": "",
        "userOS": "",
        "userIE": "",
        "logDateStr": "2026-04-28 15:53:06",
        "logState": 1,
        "logStateStr": "成功",
        "logInfo": "会员添加USDT，USDT地址TQwFHYbT9R4w2VjK8Yq8C6X8kzZ1Yp9b6X",
        "logType": 2,
        "pageName": "添加USDT",
        "pageUrl": "",
        "dataID": 0,
        "dataName": "",
        "dataValue": ""
      },
      {
        "logID": 88669,
        "userId": 2247496,
        "logTitle": "添加UPI",
        "userName": "918138071495",
        "userIP": "",
        "userIPArea": "",
        "userOS": "",
        "userIE": "",
        "logDateStr": "2026-04-28 13:49:20",
        "logState": 1,
        "logStateStr": "成功",
        "logInfo": "会员添加UPI，参数UPIID9053021765@ptyes,实际UPIID9053021765@ptyes, UPI Name:IKRAN KHAN",
        "logType": 2,
        "pageName": "添加UPI",
        "pageUrl": "",
        "dataID": 0,
        "dataName": "",
        "dataValue": ""
      },
      {
        "logID": 88668,
        "userId": 2247496,
        "logTitle": "添加UPI",
        "userName": "918138071495",
        "userIP": "",
        "userIPArea": "",
        "userOS": "",
        "userIE": "",
        "logDateStr": "2026-04-27 19:04:15",
        "logState": 1,
        "logStateStr": "成功",
        "logInfo": "会员添加UPI，参数UPIID9004392048@mbkns,实际UPIID9004392048@mbkns, UPI Name:IKRAN KHAN",
        "logType": 2,
        "pageName": "添加UPI",
        "pageUrl": "",
        "dataID": 0,
        "dataName": "",
        "dataValue": ""
      },
      {
        "logID": 88667,
        "userId": 2247496,
        "logTitle": "添加UPI",
        "userName": "918138071495",
        "userIP": "",
        "userIPArea": "",
        "userOS": "",
        "userIE": "",
        "logDateStr": "2026-04-27 18:49:10",
        "logState": 1,
        "logStateStr": "成功",
        "logInfo": "会员添加UPI，参数UPIID9034900252@ibl,实际UPIID9034900252@ibl, UPI Name:PARVINDER KAUR",
        "logType": 2,
        "pageName": "添加UPI",
        "pageUrl": "",
        "dataID": 0,
        "dataName": "",
        "dataValue": ""
      },
      {
        "logID": 88666,
        "userId": 2247496,
        "logTitle": "添加银行卡",
        "userName": "918138071495",
        "userIP": "",
        "userIPArea": "",
        "userOS": "",
        "userIE": "",
        "logDateStr": "2026-04-27 18:38:09",
        "logState": 1,
        "logStateStr": "成功",
        "logInfo": "会员添加银行卡，银行卡号7959573846, 收款人PARVINDER KAUR",
        "logType": 2,
        "pageName": "添加银行卡",
        "pageUrl": "",
        "dataID": 0,
        "dataName": "",
        "dataValue": ""
      },
      {
        "logID": 88665,
        "userId": 2247199,
        "logTitle": "添加UPI",
        "userName": "918138071482",
        "userIP": "",
        "userIPArea": "",
        "userOS": "",
        "userIE": "",
        "logDateStr": "2026-04-27 16:02:43",
        "logState": 1,
        "logStateStr": "成功",
        "logInfo": "会员添加UPI，参数UPIID9004392048-2@ybl,实际UPIID9004392048-2@ybl, UPI Name:PARVINDER KAUR",
        "logType": 2,
        "pageName": "添加UPI",
        "pageUrl": "",
        "dataID": 0,
        "dataName": "",
        "dataValue": ""
      },
      {
        "logID": 88664,
        "userId": 2247199,
        "logTitle": "添加UPI",
        "userName": "918138071482",
        "userIP": "",
        "userIPArea": "",
        "userOS": "",
        "userIE": "",
        "logDateStr": "2026-04-27 12:44:17",
        "logState": 1,
        "logStateStr": "成功",
        "logInfo": "会员添加UPI，参数UPIID9053021765@ikwik,实际UPIID9053021765@ikwik, UPI Name:PARVINDER KAUR",
        "logType": 2,
        "pageName": "添加UPI",
        "pageUrl": "",
        "dataID": 0,
        "dataName": "",
        "dataValue": ""
      }
    ],
    "pageNo": 1,
    "totalPage": 23,
    "totalCount": 458
  },
  "code": 0,
  "msg": "成功",
  "msgCode": 0
}